<?xml version="1.0" encoding="UTF-8" standalone="no"?>
<svg
   version="1.0"
   viewBox="0 0 266.10264 266.10263"
   id="svg105"
   sodipodi:docname="logo.svg"
   width="254"
   height="254"
   inkscape:version="1.2.2 (b0a8486541, 2022-12-01)"
   inkscape:export-filename="drosophila-redeyes.png"
   inkscape:export-xdpi="96"
   inkscape:export-ydpi="96"
   xmlns:inkscape="http://www.inkscape.org/namespaces/inkscape"
   xmlns:sodipodi="http://sodipodi.sourceforge.net/DTD/sodipodi-0.dtd"
   xmlns="http://www.w3.org/2000/svg"
   xmlns:svg="http://www.w3.org/2000/svg">
  <sodipodi:namedview
     id="namedview107"
     pagecolor="#ffffff"
     bordercolor="#000000"
     borderopacity="0.25"
     inkscape:showpageshadow="2"
     inkscape:pageopacity="0.0"
     inkscape:pagecheckerboard="0"
     inkscape:deskcolor="#d1d1d1"
     showgrid="true"
     inkscape:zoom="1.2656433"
     inkscape:cx="109.03546"
     inkscape:cy="215.70058"
     inkscape:window-width="1920"
     inkscape:window-height="1011"
     inkscape:window-x="0"
     inkscape:window-y="0"
     inkscape:window-maximized="1"
     inkscape:current-layer="svg105">
    <inkscape:grid
       type="xygrid"
       id="grid445" />
  </sodipodi:namedview>
  <defs
     id="defs5">
    <clipPath
       clipPathUnits="userSpaceOnUse"
       id="a">
      <path
         d="M 8.715,0.24 H 198.44 V 240.254 H 8.715 Z"
         id="path2" />
    </clipPath>
  </defs>
  <rect
     style="fill:#ffffff;fill-opacity:1;stroke:none;stroke-width:2.26693;stroke-linecap:square"
     id="rect388"
     width="266.10263"
     height="266.10263"
     x="7.1054274e-15"
     y="0" />
  <g
     id="g1048"
     transform="matrix(0.83419167,0,0,0.83419167,54.477705,8.3763007)">
    <path
       d="m 94.156267,40.677239 c 8.655003,0.52 13.932003,1.539 21.627003,7.735 0,0 3.358,0 4.797,-8.775 0.96,-8.774 0.96,-13.951 -3.837,-19.108 -3.358,-3.098 -8.155,-4.657 -12.973,-4.657 -2.878,0 -7.195003,1.04 -9.614003,2.598 -2.398,-1.559 -6.716,-2.598 -9.594,-2.598 -4.337,0 -9.614,1.559 -12.492,4.657 -5.297,5.157 -5.297,10.334 -4.318,19.108 1.44,8.775 4.797,8.775 4.797,8.775 7.676,-6.196 12.972,-7.216 21.607,-7.735 z"
       fill="#60676c"
       fill-rule="evenodd"
       fill-opacity="1"
       stroke="none"
       id="path7" />
    <path
       d="m 78.226267,17.072239 c -2.379,1.038 -4.757,2.058 -6.196,3.597 -5.257,5.097 -5.257,10.214 -4.298,18.908 0.48,2.06 0.96,3.578 1.44,4.598 10.973,-8.175 12.872,-20.968 9.054,-27.104 z"
       fill="#ea4e4e"
       fill-rule="evenodd"
       fill-opacity="1"
       stroke="none"
       id="path9" />
    <path
       d="m 84.522267,16.052239 c 1.919,0 3.838,0.52 5.757,1.02 h 0.48 c -0.48,-4.098 -5.277,-7.1969995 -8.156,-6.157 -2.878,1.02 -2.398,3.598 -1.439,5.656 0.96,-0.52 2.399,-0.52 3.358,-0.52 z"
       fill="#000000"
       fill-rule="evenodd"
       fill-opacity="1"
       stroke="none"
       id="path11" />
    <path
       d="m 82.543267,10.875239 h 2.379 c 0,0 0,-0.52 -0.46,-0.52 0,-0.5199995 -7.635,-8.3149995 -12.892,-7.7949995 -0.48,0 -0.96,0.52 -0.96,1.559 0,0.52 0.48,1.04 0.96,1.04 3.338,-0.52 8.115,3.637 10.494,6.2359995 l 0.48,-0.52 z"
       fill="#000000"
       fill-rule="evenodd"
       fill-opacity="1"
       stroke="none"
       id="path13" />
    <path
       d="m 77.246267,90.387239 c 4.318,8.215 10.554,12.312001 16.79,12.312001 z"
       fill="#4e4e50"
       fill-rule="evenodd"
       fill-opacity="1"
       stroke="none"
       id="path15" />
    <path
       d="m 71.410267,52.350239 c -4.797,-1.54 -10.074,-5.637 -11.993,-9.754 -0.96,-1.02 -2.398,-1.54 -3.358,-0.5 -0.96,0.5 -1.439,2.039 -0.48,3.578 0.48,1.04 7.676,12.812 14.872,15.37 0,-3.058 0.48,-6.136 0.959,-8.694 z m -2.319,34.359 c -6.715,1.04 -11.513,1.559 -13.911,3.118 -0.96,1.04 -1.44,2.598 -0.48,3.638 0.48,1.04 1.919,1.559 3.358,0.52 1.44,-1.04 6.716,-1.56 11.513,-2.08 l 7.675,-1.558 c -0.959,-1.04 -1.439,-2.599 -2.398,-4.678 z"
       fill="#000000"
       fill-rule="evenodd"
       fill-opacity="1"
       stroke="none"
       id="path17" />
    <path
       d="m 56.619267,39.657239 c 0,-1.019 0.48,-1.539 0,-2.578 -0.48,0 -0.96,0.52 -1.44,0.52 v -3.598 c -0.479,0 -0.959,0 -0.959,0.52 -0.48,-1.54 0,-2.579 0,-3.598 -0.48,0 -0.959,0.5 -1.439,0.5 0,-1.02 0.48,-2.06 0.48,-3.079 -0.48,0.52 -0.96,0.52 -0.96,0.52 0,-0.52 0.48,-1.56 0.48,-2.579 0,0.52 -0.96,0.52 -0.96,0.52 0,-0.52 0,-1.559 0.48,-2.578 -1.439,0 -1.439,-1.54 -0.959,-2.579 h -0.96 c 0,-1.02 0.48,-2.058 0.48,-3.078 h -0.979 c 0,-0.52 0.5,-2.059 0.5,-2.578 -0.5,0.52 -0.98,0.52 -1.46,0.52 0.48,-0.52 0.48,-2.06 0.48,-2.579 0,0 -0.48,0.52 -0.959,0.52 v -1.54 c 0,0 -0.48,0.52 -0.48,0 0,-0.52 -0.48,-1.039 0,-1.538 -0.48,0.5 -1.439,0.5 -1.439,1.019 -0.48,-0.52 -0.96,-1.54 -0.96,-2.059 0,0.52 -0.959,0.52 -0.959,0.52 0,-0.52 -0.48,-1.0399995 -0.48,-1.5399995 -0.48,0 -1.459,0 -1.459,0.5 0,-0.5 -0.48,-1.019 -0.48,-1.539 0,0.52 -0.959,0.52 -1.438,1.04 0,-0.52 -0.48,-0.52 -0.48,-1.04 -0.48,0 -0.96,0 -1.44,0.52 0,-0.52 -0.479,-2.059 -0.479,-2.059 -0.96,0.52 -1.919,0 -1.919,-1.539 0,0.52 -0.96,0.52 -1.459,1.02 0,-0.5 -0.48,-1.02 -0.48,-1.54 -0.48,0.52 -0.959,0.52 -1.439,0.52 0,-0.52 -0.48,-1.04 -0.48,-1.539 0,0.5 -0.959,0.5 -0.959,1.02 0,0 0,-0.52 -0.48,-0.52 v -2.059 c -0.48,0.52 -0.959,0.52 -1.439,1.04 -0.48,-1.04 -1.439,-3.09900002 -1.939,-2.57900002 0,0 0.5,3.09800002 0.5,3.59800002 0,0.52 0,0.52 0.48,1.04 2.878,3.597 13.452,8.7339995 17.79,10.2929995 0.959,6.156 2.877,16.97 9.134,27.244 0,0 0,-0.5 0.48,-0.5 0.479,-0.52 0.959,-0.52 1.438,-0.52 -0.48,-0.52 -0.959,-1.02 -0.959,-2.059 z m -1.999,53.788 c -0.48,-0.52 -0.48,-1.54 -0.48,-2.059 v -0.52 c -2.398,1.54 -5.276,3.078 -8.155,4.118 -5.776,2.558 -10.573,4.617 -12.972,7.695001 -3.857,0 -24.5050004,0.5 -29.7820004,3.078 -0.48,0 -0.98,0 -0.98,0.5 v 0.52 c 0,1.02 0,2.058 0.5,2.558 0,-0.5 0.48,-0.5 0.96,-0.5 0.48,0 0.48,-0.52 0.96,-1.039 0.48,0 0.48,0.52 0.959,1.04 0,-0.52 0.48,-1.04 0.96,-1.54 0,0.5 0.479,1.02 0.479,1.02 0.48,0 0.96,-1.02 1.44,-1.02 0.479,0 0.479,0.5 0.959,1.02 0.48,0 0.9590004,-1.02 1.4390004,-1.54 0.48,0 0.96,1.02 0.96,1.02 0.479,0 0.959,-0.5 1.438,-1.02 0.48,0 0.96,0.52 1.44,0.52 0.959,0 0.959,-1.039 1.938,0 1.44,-1.539 1.919,-0.52 2.878,0 0.48,-1.539 0.96,-0.52 1.44,-0.52 h 0.959 c 0.48,0 0.96,-0.519 0.96,-0.519 0.48,0 0.48,0.52 0.48,0.52 0.479,0 0.959,-0.52 1.438,-0.52 0.48,0 0.48,0.52 0.96,0.52 0.48,-0.52 0.48,-0.52 0.96,-0.52 0.479,0 0.479,-0.5 0.959,-0.5 0.48,0 0.48,0.5 0.959,0.5 0.48,0 0.48,-0.5 1.46,-0.5 0.479,0 0.958,0.5 1.438,0.5 l 0.48,-0.5 c 0.48,0 1.439,0.5 1.439,0.5 0,-0.5 0,-0.5 0.48,-0.5 0,0 0.48,0.5 0.96,0.5 0,-1.02 0.479,-1.54 0.959,-2.558 0.48,0.52 0.959,0.52 1.439,0.52 0,-0.52 0,-1.54 0.48,-1.54 0.48,-0.52 0.48,0 0.959,0 0,-0.52 0.48,-1.04 0.96,-1.539 0,0 0.479,1.02 0.959,1.02 0,-1.02 0.48,-1.54 0.96,-2.06 0,0.52 0.479,0.52 0.958,0.52 0,-0.52 0.5,-1.539001 0.98,-1.539001 0.48,0 0.48,0.52 0.96,1.020001 0.479,-1.020001 0.479,-1.020001 0.959,-1.540001 l 0.48,0.52 c 0,-2.058 1.918,0 2.398,-0.52 0.48,-0.499 0,-1.538 0.48,-1.019 0.96,0 0.96,0.52 1.439,0 0.48,-1.02 0.48,-1.539 1.439,-1.02 0.96,0 0.48,0.5 0.96,-0.519 0.48,-0.52 0,-0.52 0.959,-0.52 0.48,-0.5 0.48,0 0.96,-0.5 0.479,0 0.479,-0.519 0.959,-0.519 -0.48,-0.52 -0.96,-0.52 -0.96,-1.02 z m 18.789,101.518001 c -1.44,-1.02 -0.96,-3.078 0.48,-3.598 -1.44,0.52 -1.44,-1.019 -0.96,-2.558 -2.878,0.52 -2.878,0 -1.919,-2.558 -0.96,0 -1.919,0.5 -2.398,0.5 -0.48,-0.5 -0.48,-1.02 -0.48,-1.02 0,-1.02 0.48,-1.54 0,-2.059 -0.48,-1.539 -1.44,-1.02 -1.919,-1.539 0,-0.5 -0.48,-0.5 -0.48,-0.5 0,-0.52 0,-1.039 0.48,-2.058 -0.48,0 -0.48,-0.52 -0.96,0 -0.479,-1.54 0.48,-2.559 0.48,-3.598 h -1.918 c 0,-0.5 0.48,-2.039 0.48,-2.559 -0.48,-1.02 -0.96,0 -1.92,-0.52 -0.48,-1.019 -0.48,-1.538 -0.959,-2.038 0.48,-0.52 0.48,-1.54 0.48,-2.579 h -0.96 c 0,0 -0.48,-0.5 -0.48,-1.019 0.48,-1.02 0.48,-2.059 -0.479,-2.059 0,-0.5 -0.48,-0.5 -0.48,-1.02 0.48,-1.018 0.96,-1.538 0.96,-2.558 h -1.44 c 0,-1.039 0.48,-2.058 0.96,-2.578 -3.358,0.52 -0.96,-1.539 -1.44,-2.558 -0.479,-0.52 -0.479,-0.52 -0.959,-0.52 v -3.598 h -1.439 c -0.48,-0.5 -0.96,-1.02 -0.96,-1.539 -0.959,9.254 7.197,30.801 11.514,37.457 0.96,2.06 3.358,6.676 0.48,10.794 l -0.48,0.5 -16.31,20.527 c -0.96,1.54 -1.44,3.598 -0.48,3.598 0.48,1.02 0.96,1.539 1.919,2.039 0,-1.02 0,-2.559 0.48,-3.578 0.48,0 1.439,0.5 2.398,0 -0.96,-1.54 0,-3.598 1.919,-2.579 v -2.038 c 0.48,-0.52 1.44,0 1.919,-0.52 0.48,-0.52 0,-1.54 0.48,-2.059 0.48,-1.02 1.439,-1.02 2.398,-1.02 0,-3.597 0,-2.558 2.878,-3.077 -1.439,-2.559 1.44,-3.079 3.358,-3.598 -0.96,-2.039 0,-3.578 2.399,-3.578 -0.48,-1.54 0,-3.078 1.919,-3.078 -0.48,-1.04 -0.48,-2.579 0.96,-2.579 -0.48,-1.019 -0.96,-2.558 0.479,-3.078 z"
       fill="#000000"
       fill-rule="evenodd"
       fill-opacity="1"
       stroke="none"
       id="path19" />
    <path
       d="m 109.90727,17.072239 c 2.438,1.038 4.857,2.058 6.796,3.597 4.837,5.097 4.837,10.214 3.877,18.908 -0.48,2.06 -0.98,3.578 -1.459,4.598 -11.153,-8.175 -13.092,-20.968 -9.214,-27.104 z"
       fill="#ea4e4e"
       fill-rule="evenodd"
       fill-opacity="1"
       stroke="none"
       id="path21" />
    <path
       d="m 103.73027,16.052239 c -1.459,0 -3.897003,0.52 -5.836003,1.02 h -0.5 c 0.98,-4.098 5.357003,-7.1969995 8.275003,-6.157 2.919,1.02 2.439,3.598 1.96,5.656 -1.46,-0.52 -2.44,-0.52 -3.899,-0.52 z"
       fill="#000000"
       fill-rule="evenodd"
       fill-opacity="1"
       stroke="none"
       id="path23" />
    <path
       d="m 105.64927,10.875239 h -2.418 c 0,0 0,-0.52 0.5,-0.52 0.48,-0.5199995 7.715,-8.3149995 13.012,-7.7949995 0.48,0 0.959,0.52 0.959,1.559 0,0.52 -0.48,1.04 -0.96,1.04 -3.377,-0.52 -8.194,3.637 -10.613,6.2359995 0,0 0,-0.52 -0.48,-0.52 z"
       fill="#000000"
       fill-rule="evenodd"
       fill-opacity="1"
       stroke="none"
       id="path25" />
    <path
       d="m 110.90627,90.387239 c -4.337,8.215 -10.114,12.312001 -16.870003,12.312001 z"
       fill="#4e4e50"
       fill-rule="evenodd"
       fill-opacity="1"
       stroke="none"
       id="path27" />
    <path
       d="m 115.22327,100.64024 c -1.918,-6.156001 -3.357,-9.234001 -4.337,-10.273001 3.378,-5.637 5.777,-13.332 6.736,-23.086 0.96,-7.696 -0.96,-16.43 -1.919,-18.989 -7.695,-6.156 -12.972,-7.195 -21.627003,-7.715 -8.634,0.52 -13.911,1.559 -21.607,7.715 -0.959,2.559 -2.878,11.293 -1.918,18.989 0.959,9.754 3.358,17.45 6.715,23.086 -0.48,1.039 -2.398,4.117 -4.317,10.273001 -5.277,15.391 -11.533,38.497 -6.236,55.427 5.277,16.95 15.85,34.899 27.363,34.899 11.533003,0 22.107003,-17.95 27.384003,-34.9 5.276,-16.929 -0.96,-40.035 -6.237,-55.426 z"
       fill="#60676c"
       fill-rule="evenodd"
       fill-opacity="1"
       stroke="none"
       id="path29" />
    <path
       d="m 116.74327,52.350239 c 4.797,-1.54 10.073,-5.637 11.992,-9.754 0.96,-1.02 2.399,-1.54 3.358,-0.5 0.96,0.5 1.44,2.039 0.96,3.578 -0.96,1.04 -7.676,12.812 -14.871,15.37 -0.48,-3.058 -0.96,-6.136 -1.44,-8.694 z"
       fill="#4e4e50"
       fill-rule="evenodd"
       fill-opacity="1"
       stroke="none"
       id="path31" />
    <path
       d="m 113.32527,85.669239 c -0.48,2.08 -1.44,3.638 -2.419,4.678 l 7.735,1.559 c 4.837,0.52 10.154,1.04 12.073,2.078 0.96,1.04 2.419,0.52 2.898,-0.52 0.96,-1.039 0.48,-2.598 -0.48,-3.637 -2.418,-1.56 -6.755,-2.079 -14.01,-3.118 z m 18.868,-46.012 c -0.48,-1.019 -0.96,-1.539 -0.48,-2.578 0.48,0 0.96,0.52 1.44,0.52 v -3.598 c 0.48,0 0.959,0 1.439,0.52 0,-1.54 -0.48,-2.579 0,-3.598 0,0 0.48,0.5 0.96,0.5 0,-1.02 -0.48,-2.06 -0.48,-3.079 0.48,0.52 0.959,0.52 0.959,0.52 0,-0.52 0,-1.56 -0.48,-2.579 0,0.52 0.96,0.52 1.44,0.52 -0.48,-0.52 -0.48,-1.559 -0.48,-2.578 1.439,0 0.959,-1.54 0.48,-2.579 h 1.458 c -0.5,-1.02 -0.979,-2.058 -0.979,-3.078 h 1.46 c -0.48,-0.52 -0.48,-2.059 -0.98,-2.578 0.5,0.52 0.98,0.52 1.459,0.52 -0.48,-0.52 -0.48,-2.06 -0.48,-2.579 0,0 0.48,0.52 0.96,0.52 v -1.54 c 0.48,0 0.48,0.52 0.959,0 -0.48,-0.52 0,-1.039 -0.48,-1.538 0.48,0.5 1.44,0.5 1.92,1.019 0,-0.52 0.479,-1.54 0.479,-2.059 0.48,0.52 0.96,0.52 1.439,0.52 V 9.3152395 c 0.48,0 1.439,0 1.939,0.5 v -1.539 c 0,0.52 1.439,0.52 1.439,1.04 0.48,-0.52 0.48,-0.52 0.48,-1.04 0.48,0 0.959,0 1.439,0.52 0,-0.52 0.48,-2.059 0.48,-2.059 1.439,0.52 1.918,0 1.918,-1.539 0,0.52 0.96,0.52 1.46,1.02 0,-0.5 0.48,-1.02 0.48,-1.54 0.479,0.52 0.958,0.52 1.438,0.52 0,-0.52 0.48,-1.04 0.48,-1.539 0.48,0.5 0.96,0.5 1.439,1.02 v -0.52 c 0,-0.5 0.48,-1.54 0,-2.059 0.48,0.52 0.96,0.52 1.44,1.04 0.479,-1.04 1.438,-3.09900002 1.918,-2.57900002 0,0 -0.48,3.09800002 -0.48,3.59800002 v 1.04 c -3.358,3.597 -13.931,8.7339995 -18.269,10.2929995 -0.48,6.156 -2.878,16.97 -8.654,27.244 -0.48,0 -0.48,-0.5 -0.96,-0.5 -0.48,-0.52 -0.96,-0.52 -1.459,-0.52 0.5,-0.52 0.98,-1.02 1.46,-2.059 z"
       fill="#000000"
       fill-rule="evenodd"
       fill-opacity="1"
       stroke="none"
       id="path33" />
    <path
       d="m 133.55227,93.445239 c 0.48,-0.52 0.48,-1.54 0.48,-2.059 v -0.52 c 2.878,1.54 5.777,3.078 8.655,4.118 5.297,2.558 10.593,4.617 12.992,7.695001 3.358,0 24.065,0.5 29.822,3.078 0,0 0.48,0 0.48,0.5 v 0.52 c 0,1.02 0,2.058 -0.48,2.558 0,-0.5 -0.48,-0.5 -0.96,-0.5 -0.48,0 -0.48,-0.52 -0.959,-1.039 0,0 -0.48,0.52 -0.48,1.04 -0.48,-0.52 -0.96,-1.04 -1.439,-1.54 0,0.5 -0.48,1.02 -0.48,1.02 -0.48,0 -0.959,-1.02 -1.439,-1.02 -0.5,0 -0.5,0.5 -0.979,1.02 -0.48,0 -0.96,-1.02 -1.44,-1.54 -0.479,0 -0.479,1.02 -0.959,1.02 -0.48,0 -0.959,-0.5 -1.439,-1.02 -0.48,0 -0.48,0.52 -0.96,0.52 -1.458,0 -1.458,-1.039 -2.418,0 -0.96,-1.539 -1.918,-0.52 -2.878,0 -0.48,-1.539 -0.96,-0.52 -1.439,-0.52 h -0.96 c -0.5,0 -0.979,-0.519 -0.979,-0.519 l -0.48,0.52 c -0.48,0 -0.959,-0.52 -1.439,-0.52 -0.48,0 -0.48,0.52 -0.48,0.52 -0.48,-0.52 -0.959,-0.52 -1.439,-0.52 0,0 -0.48,-0.5 -0.959,-0.5 0,0 -0.48,0.5 -0.96,0.5 -0.5,0 -0.5,-0.5 -1.458,-0.5 -0.48,0 -0.48,0.5 -1.44,0.5 0,0 0,-0.5 -0.48,-0.5 l -0.959,0.5 -0.48,-0.5 c -0.48,0 -0.959,0.5 -1.439,0.5 0.48,-1.02 -0.5,-1.54 -0.979,-2.558 -0.48,0.52 -0.96,0.52 -1.44,0.52 0,-0.52 0,-1.54 -0.479,-1.54 0,-0.52 -0.48,0 -0.96,0 0,-0.52 0,-1.04 -0.959,-1.539 0,0 -0.48,1.02 -0.96,1.02 0,-1.02 -0.479,-1.54 -0.958,-2.06 0,0.52 -0.5,0.52 -0.98,0.52 0,-0.52 -0.48,-1.539001 -0.96,-1.539001 -0.479,0 -0.479,0.52 -0.959,1.020001 0,-1.020001 0,-1.020001 -0.96,-1.540001 0,0 0,0.52 -0.479,0.52 0,-2.058 -1.439,0 -2.398,-0.52 0,-0.499 0.48,-1.538 -0.5,-1.019 -0.96,0 -0.96,0.52 -1.44,0 -0.479,-1.02 0,-1.539 -0.959,-1.02 -0.96,0 -0.96,0.5 -1.439,-0.519 -0.48,-0.52 0,-0.52 -0.48,-0.52 -0.48,-0.5 -0.959,0 -1.439,-0.5 -0.48,0 -0.48,-0.519 -0.979,-0.519 0.5,-0.52 0.98,-0.52 0.98,-1.02 z m -18.868,101.518001 c 1.439,-1.02 1.439,-3.078 -0.5,-3.598 1.939,0.52 1.939,-1.019 1.46,-2.558 2.398,0.52 2.398,0 1.918,-2.558 0.48,0 1.44,0.5 1.919,0.5 0.48,-0.5 0.48,-1.02 0.96,-1.02 -0.48,-1.02 -0.48,-1.54 -0.48,-2.059 0.48,-1.539 1.938,-1.02 2.418,-1.539 v -0.5 c 0,-0.52 0,-1.039 -0.48,-2.058 0.48,0 0.96,-0.52 1.44,0 0,-1.54 -0.48,-2.559 -0.96,-3.598 h 1.919 c 0,-0.5 -0.48,-2.039 -0.48,-2.559 0.48,-1.02 0.96,0 1.92,-0.52 0.479,-1.019 0.479,-1.538 0.959,-2.038 0,-0.52 -0.48,-1.54 -0.48,-2.579 h 0.96 c 0.499,0 0.499,-0.5 0.499,-1.019 0,-1.02 -0.5,-2.059 0.48,-2.059 0.48,-0.5 0.48,-0.5 0.48,-1.02 -0.48,-1.018 -0.48,-1.538 -0.48,-2.558 h 0.96 c 0,-1.039 -0.48,-2.058 -0.48,-2.578 2.878,0.52 0.48,-1.539 0.959,-2.558 0.48,-0.52 0.48,-0.52 0.96,-0.52 0,-1.54 0,-2.559 0.479,-3.598 h 0.96 c 0.479,-0.5 0.959,-1.02 0.959,-1.539 0.98,9.254 -6.736,31.82 -11.054,38.996 -2.898,4.118 -2.418,7.196 -0.48,9.754 1.92,2.579 17.79,22.067 17.79,22.067 0.96,1.54 0,2.059 -0.96,2.059 -0.48,1.02 -0.959,1.539 -1.918,2.039 0,-1.02 0.48,-2.559 0,-3.578 -0.96,0 -1.92,0.5 -2.399,0 0.48,-1.54 -0.5,-3.598 -2.418,-2.579 0,-0.5 0.48,-1.539 0,-2.038 -0.48,-0.52 -1.44,0 -1.92,-0.52 -0.479,-0.52 0.48,-1.54 0,-2.059 -0.959,-1.02 -1.438,-1.02 -2.897,-1.02 0,-3.597 0,-2.558 -2.879,-3.077 1.44,-2.559 -1.439,-3.079 -2.878,-3.598 0.48,-2.039 -0.5,-3.578 -2.898,-3.578 0.48,-1.54 0,-3.078 -1.92,-3.078 0.48,-1.04 0.48,-2.579 -0.958,-2.579 0.959,-1.019 0.959,-2.558 -0.48,-3.078 z m 7.335,-68.198 -1.439,-8.235 c 0,1.039 -0.48,2.058 -0.96,3.098 -2.398,0.5 -4.317,2.558 -6.735,3.598 -1.919,1.019 -9.614,2.558 -11.053,1.019 -0.48,1.539 -2.899003,2.059 -3.858003,1.02 -1.919,1.558 -3.858,2.578 -6.256,2.058 -0.48,0 -1.44,-0.5 -1.92,-0.5 -0.479,0 -0.959,0.5 -1.918,0.5 -0.48,0 -0.98,-0.5 -1.939,-1.02 -0.48,0 -0.96,0.52 -1.919,0 -0.959,-0.519 -1.918,-2.058 -2.398,-3.077 -0.96,0.5 -2.419,2.038 -2.898,2.038 -1.92,0 -0.96,-1.539 -1.92,-2.038 -1.438,-0.52 -2.398,1.539 -3.357,-1.56 -1.46,0.52 -1.939,-0.5 -2.419,-1.539 -1.439,0.52 -1.919,-0.5 -1.919,-2.038 h -0.959 c 0,-0.52 -0.48,-1.04 -0.48,-1.56 -0.48,2.579 -0.96,5.657 -1.459,8.236 0,1.019 0.5,2.058 0.98,3.078 0.48,2.558 1.439,4.617 3.837,6.676 1.92,1.539 1.92,2.578 4.338,3.078 1.918,0.52 4.317,0.52 6.256,1.04 1.919,0.499 2.878,0 4.797,0 0.98,0 2.898,1.019 3.858,1.019 0.48,-0.52 0.959,-1.54 1.439,-1.54 0.96,0 0.96,1.02 1.919,1.54 0.979,0.52 1.938,-1.02 1.938,1.019 2.399,-2.039 3.358,-2.039 6.736003,-2.039 3.358,-0.52 6.736,-2.059 10.094,-2.578 2.399,-0.52 1.919,-0.52 2.898,-2.559 0,0 0.48,0 0.48,-0.52 3.838,-2.058 6.236,-5.136 6.236,-8.214 z"
       fill="#000000"
       fill-rule="evenodd"
       fill-opacity="1"
       stroke="none"
       id="path35" />
    <path
       d="m 123.37927,142.67524 c 0,1.539 -0.48,3.078 -1.92,4.617 0,-0.52 0,-1.02 -0.959,-1.539 -0.48,3.078 -3.358,3.578 -5.756,4.617 -1.92,1.02 -7.216,3.578 -9.614,2.559 -0.48,1.02 -1.44,1.539 -2.399,0.5 -1.44,2.058 -2.398,2.058 -4.317003,1.538 -1.44,-0.5 -4.817,-2.038 -5.297,-3.058 -1.44,0.5 -3.358,0.5 -4.318,-0.52 -1.439,1.54 -4.317,2.04 -5.756,0 -0.96,1.02 -2.878,1.02 -3.858,0 -0.96,1.02 -1.919,0 -2.398,-1.019 -0.96,1.54 -1.44,0.5 -2.399,0 -0.96,-0.52 -1.439,-1.539 -1.919,-2.058 -0.48,-0.5 -0.959,-0.5 -1.439,-0.5 -0.96,-1.04 -1.439,-2.059 -2.398,-2.559 -1.44,-1.039 -2.399,1.02 -3.358,-1.039 l 0.48,2.059 c -0.48,-1.02 -0.98,-2.559 -0.98,-3.598 0,4.617 0.5,9.234 1.939,13.312 0.96,1.04 1.919,2.059 2.878,2.578 0.48,1.52 1.919,2.04 2.399,3.058 0.96,0.52 0.96,1.02 1.439,1.54 0.48,0.52 1.439,0 1.919,0.52 0.96,0 1.439,1.538 2.398,2.038 0.48,0.52 1.44,0 1.919,0 1.46,1.02 2.419,2.059 1.939,3.578 0.48,-2.039 1.919,-2.039 3.358,-2.559 0.48,0 2.878,-1.019 3.837,-1.019 0.96,0 1.44,1.02 2.399,1.54 0.96,0 0.96,-1.02 2.399,-1.02 1.459,-0.52 1.459,1.019 2.898,1.019 1.439,0 2.398,-2.558 3.358,0.52 1.919003,-2.059 1.919003,-1.04 3.837003,-1.04 1.44,-0.5 2.879,-3.058 4.798,-1.019 0.48,-1.02 1.459,-2.039 2.898,-1.54 1.439,-2.558 3.837,-3.057 5.756,-4.596 1.92,-1.02 3.358,-2.06 4.318,-3.598 0.96,-3.058 1.919,-6.656 1.919,-9.714 z m -13.432,31.881 c -2.399,0 -4.797,0.5 -7.216,0.5 h -3.838003 c -0.959,0 -0.959,1.039 -1.918,1.039 -1.92,0 -3.858,-2.579 -5.297,-2.06 -1.92,0 -2.879,3.08 -4.797,0 -0.48,2.56 -4.817,1.02 -6.257,-0.519 -0.959,1.04 -2.878,1.54 -2.878,-0.5 -0.48,0.5 -0.96,0.5 -1.439,1.02 -0.96,-1.02 -2.398,-1.54 -3.378,-2.059 1.46,2.059 2.419,4.118 3.858,6.156 l 0.96,1.54 v 1.539 c 0,-0.5 0.479,-0.5 0.479,0 0.48,0 0.48,0.52 0.96,1.039 0,0.5 -0.48,1.02 -0.48,1.539 1.439,-0.52 1.439,1.02 1.439,2.059 h 0.96 v 1.539 c 1.438,-0.52 1.918,0 1.918,1.539 0.98,0 1.939,1.02 1.939,2.558 1.439,-1.539 1.919,0.52 1.439,2.06 0.48,-1.54 1.44,-1.04 0.96,1.538 0.48,-0.52 1.438,-1.539 1.918,-1.539 0.96,0 0,2.039 0.48,3.578 0,-2.039 -0.48,-2.559 1.439,-3.078 0,-0.5 0.48,1.04 0.96,1.539 0,-0.5 0,-1.54 0.48,-1.54 0.959,-0.499 0.959,0.52 0.959,1.54 0,-2.559 1.938,0.52 2.418,1.04 0,0.499 -0.48,-2.06 0.48,-2.58 0.48,0 1.439,0.52 1.919,1.54 -1.44,-2.039 0.96,-3.578 2.398003,-1.54 v -0.499 c -0.960003,-1.539 0.48,-2.578 1.919,-1.04 -0.48,-1.538 0,-3.577 1.44,-3.577 0.479,-1.04 0.979,-1.54 1.458,-2.059 0.48,-0.52 1.44,0 1.44,0 0.48,-0.52 0,-1.02 0.48,-1.539 0.479,-1.04 0.479,-2.059 0.479,-3.078 h 0.48 c 2.398,-3.078 4.797,-6.676 6.715,-10.793 -1.439,1.559 -3.357,2.058 -5.276,3.098 z"
       fill="#000000"
       fill-rule="evenodd"
       fill-opacity="1"
       stroke="none"
       id="path37" />
    <path
       clip-path="url(#a)"
       d="M 185.727,146.671 C 178.032,127.163 150.609,102.038 145.312,92.804 139.555,83.05 130.881,84.069 126.563,74.315 l -0.48,0.52 c -0.959,6.676 -2.898,11.812 -5.296,16.43 l 0.96,2.558 c 2.418,-1.02 6.255,5.137 6.255,5.137 -0.959,0.5 -1.439,1.54 -1.918,2.558 0,0.52 -0.48,1.02 -0.96,1.54 -8.655,15.91 -9.154,32.32 -2.898,56.445 0.96,3.078 1.939,6.656 3.858,10.254 0.48,0.52 0.48,1.54 0.959,2.559 h 0.48 c 0,1.039 0.48,1.539 0.96,2.578 l 0.479,0.5 c 0,0.52 0.48,1.539 0.96,2.578 h 0.479 c 0.48,1.02 0.98,2.039 1.46,2.559 2.398,5.136 5.276,9.754 8.654,14.37 0,0.52 0.48,0.52 0.48,1.02 0.48,0.52 0.959,1.54 1.439,2.059 0.48,0.52 0.48,0.52 0.48,1.02 0.959,0.52 1.439,1.039 1.918,2.058 0,0 0.48,0.52 0.48,1.02 0.48,0.52 0.98,1.039 1.459,2.058 0.48,0 0.48,0.52 0.96,1.02 0.48,0.52 0.959,1.039 1.439,2.058 0.48,0 0.48,0.52 0.959,0.52 0.48,1.02 0.96,1.54 1.44,2.039 v 0.52 c 1.438,1.539 2.418,2.558 3.377,4.097 0.48,0.52 0.96,0.52 0.96,1.04 0.48,0.5 0.959,1.019 1.439,1.538 0.48,0.5 0.96,1.02 0.96,1.54 0.479,0 0.958,0.5 1.438,1.019 0.48,0.52 0.96,1.02 0.96,1.539 0.5,0.52 0.979,0.52 1.459,1.02 0.48,0.52 0.96,1.039 1.439,1.538 l 0.96,1.04 c 0.479,0.5 0.959,1.02 1.438,1.02 0,0.519 0.48,1.019 0.96,1.019 0.48,0.52 0.96,1.039 1.439,1.539 0,0.52 0.5,0.52 0.98,1.039 0.48,0.5 0.959,1.02 1.438,1.02 l 0.48,0.52 c 0.96,1.018 1.919,1.538 2.399,2.038 0.48,0 0.48,0.52 0.48,0.52 0.959,0.52 1.439,0.52 1.918,1.019 l 0.5,0.52 c 0.48,0.52 0.96,0.52 1.44,1.019 0.479,0 0.479,0 0.959,0.52 0.48,0 0.959,0.52 1.439,0.52 l 0.48,0.5 c 0.48,0 0.959,0.519 1.438,0.519 h 0.48 c 0.48,0.52 0.98,0.52 1.46,0.52 0,0 0.479,0 0.479,0.5 h 3.358 c 17.79,-1.54 5.297,-72.857 -2.399,-92.345 z M 80.851,101.518 c -0.48,-1.019 -0.96,-2.058 -1.44,-2.558 0,0 3.839,-6.156 5.777,-5.137 l 1.44,-2.558 C 83.729,86.647 81.81,80.991 80.851,74.315 h -0.48 c -3.857,9.754 -12.992,8.735 -18.269,18.489 -5.776,9.234 -32.72,34.359 -40.415,53.867 -7.695,19.488 -20.688,90.805 -2.878,92.344 h 3.358 c 0.48,-0.5 0.48,-0.5 0.959,-0.5 0,0 0.48,0 0.98,-0.52 h 0.959 c 0,0 0.48,-0.519 0.96,-0.519 0.479,0 0.479,-0.5 0.959,-0.5 0.48,0 0.48,-0.52 0.96,-0.52 0.479,-0.519 0.479,-0.519 0.958,-0.519 0.48,-0.5 0.96,-0.5 1.44,-1.02 l 0.48,-0.52 c 0.979,-0.499 1.458,-0.499 1.938,-1.018 l 0.48,-0.52 c 0.96,-0.5 1.439,-1.02 2.398,-1.54 0,-0.499 0.48,-0.499 0.48,-1.019 0.48,-0.52 0.96,-0.52 1.44,-1.019 0.479,-0.52 0.959,-0.52 0.959,-1.04 0.5,-0.499 0.98,-1.019 1.459,-1.538 0.48,0 0.96,-0.5 1.439,-1.02 0,0 0.48,-0.52 0.96,-1.02 0.479,-0.519 0.959,-0.519 1.438,-1.039 0.48,-0.5 0.48,-1.019 0.96,-1.539 0.48,-0.5 0.96,-0.5 1.439,-1.019 0.5,-0.52 0.5,-1.02 0.98,-1.54 0.48,-0.519 0.959,-0.519 1.439,-1.018 0.48,-0.52 0.48,-1.04 0.959,-1.54 0.48,-0.52 0.96,-1.039 1.44,-1.539 l 0.958,-1.039 c 0.96,-1.02 1.92,-2.558 2.899,-3.578 0,-0.52 0.48,-0.52 0.48,-1.04 0.48,-0.499 0.959,-1.019 1.918,-1.538 0,-0.5 0.48,-1.02 0.48,-1.02 0.48,-1.019 0.96,-1.539 1.44,-2.058 0.479,-0.5 0.479,-0.5 0.959,-1.02 0.48,-0.52 0.959,-1.539 1.459,-2.058 0.48,-0.5 0.48,-0.5 0.48,-1.02 0.959,-0.52 1.438,-1.539 1.918,-2.059 0,-0.5 0,-0.5 0.48,-1.019 0.48,-0.52 0.96,-1.54 1.439,-2.059 0,-0.5 0.48,-0.5 0.48,-1.02 3.378,-4.616 6.256,-9.234 8.654,-13.85 l 0.48,-0.52 c 0.48,-0.52 0.48,-1.54 0.96,-2.06 l 0.5,-0.499 c 0.479,-1.04 0.959,-1.539 1.438,-2.578 v -0.5 c 0.48,-1.04 0.96,-1.54 0.96,-2.578 h 0.48 c 0.48,-1.02 0.48,-1.54 0.959,-2.559 1.919,-3.598 2.878,-7.176 3.858,-10.254 6.716,-25.144 5.756,-42.074 -3.858,-57.985 z"
       fill="#e8e9e8"
       fill-rule="evenodd"
       fill-opacity="1"
       stroke="none"
       id="path39"
       transform="translate(-9.3807334,-0.95776052)" />
    <path
       d="m 75.328267,78.034239 c -2.399,-6.656 -2.399,-14.85 -1.44,-20.487 0.96,-6.157 2.879,-8.715 8.156,-10.774 5.756,-2.558 11.513,-3.078 17.27,-2.558 3.837003,0 11.032003,2.058 11.032003,7.175 -7.195,1.54 -15.350003,1.02 -21.107003,7.176 -4.797,4.617 -6.716,11.273 -5.756,17.93 0.48,2.558 5.756,14.85 0.96,14.35 -3.839,-0.52 -7.676,-8.195 -8.636,-11.792 z"
       fill="#92999d"
       fill-rule="evenodd"
       fill-opacity="1"
       stroke="none"
       id="path41" />
    <path
       d="m 96.595267,45.694239 c -5.297,2.058 -12.073,0.52 -16.41,5.137 -4.358,3.577 -5.817,10.753 -3.878,16.37 1.939,-5.617 0,-12.793 6.776,-14.332 2.898,-0.5 4.337,-1.539 6.276,-3.078 1.44,-1.519 3.858,-1.519 4.837,-3.058 z m 3.298,0.539 c -1.42,-0.54 -3.298,1.06 -1.88,2.14 0.94,0.519 2.340003,-0.54 1.88,-1.6 z m -26.084,-23.006 c -2.399,1.5 -1.44,3.998 0.959,3.498 0.48,-1.499 0.96,-2.498 -0.48,-2.998 z m 2.058,-1.199 c -0.46,0 -0.94,1.08 -0.94,1.62 1.4,0.539 2.32,-0.54 1.4,-1.62 z m -2.458,6.716 c 0,0.56 -0.48,1.12 0.48,1.679 0.48,-0.56 0,-1.12 0.48,-1.679 z m 37.977003,-5.996 c -1,0.999 -1.52,1.479 -1.52,2.458 1.52,0.98 3.039,-0.98 1.52,-1.959 z m -0.46,-2.719 c -0.92,0 -1.38,0.52 -1.38,1.52 h 1.84 v -1 z m 0.979,7.196 c -0.52,0.52 -0.52,1.02 -0.52,1.519 0.52,-0.5 1.02,-0.5 1.52,-0.5 l -0.5,-0.5 z"
       fill="#ffffff"
       fill-rule="evenodd"
       fill-opacity="1"
       stroke="none"
       id="path43" />
    <path
       d="m 106.10927,18.610239 c -1.919,2.039 -1.44,7.675 -0.48,10.214 0.48,3.578 2.879,5.637 4.318,9.214 0.96,2.539 -0.48,2.04 -2.399,2.04 -2.398,-0.52 -6.716,-1.02 -8.155003,-2.56 -1.919,-2.038 -0.96,-7.655 -1.919,-10.213 -0.48,-2.559 -1.919,-5.117 -4.317,-5.617 -1.919,-1.04 -9.115,0 -10.074,-1.539 2.878,-2.039 5.277,-2.039 8.635,-1.02 1.439,0.5 3.358,1.52 5.277,1.02 0.959,0 1.439,-1.02 2.398,-1.539 2.399003,-1.539 5.757003,-0.5 7.196003,0 z"
       fill="#92999d"
       fill-rule="evenodd"
       fill-opacity="1"
       stroke="none"
       id="path45" />
    <path
       d="m 100.83227,20.129239 c -4.797003,-0.5 -0.960003,13.332 0,15.89 0.48,-4.597 -1.919003,-8.194 -0.960003,-12.812 0.480003,-1.539 1.440003,-2.038 1.920003,-3.078 0.48,0 1.439,0 0.959,-0.5 0,-1.039 -0.96,-0.52 -1.44,-0.52 z m 3.398,-1.539 c -0.52,0.48 0,0.48 0,0.96 0.52,0 0.52,0 0.52,-0.48 0,-0.48 -0.52,0 -0.52,0 z"
       fill="#ffffff"
       fill-rule="evenodd"
       fill-opacity="1"
       stroke="none"
       id="path47" />
    <path
       d="m 75.408267,103.75924 c 0,-8.735001 7.195,-1.02 10.054,1.019 2.398,1.04 4.797,2.059 7.175,2.059 3.358,0 5.737,-1.54 8.615003,-2.06 4.297,-0.499 0.48,4.638 -1.919003,5.657 -4.297,2.06 -8.615,0 -12.432,4.618 -1.92,2.558 -2.399,5.636 -5.257,2.558 -1.919,-2.039 -3.358,-7.176 -3.838,-9.754 z"
       fill="#92999d"
       fill-rule="evenodd"
       fill-opacity="1"
       stroke="none"
       id="path49" />
    <path
       d="m 79.645267,104.69824 c -1.44,1.539 0.48,6.656 1.919,7.675 -0.48,-1.519 -1.44,-3.578 0,-4.597 0.96,-1.02 2.398,1.02 3.358,-0.52 -0.96,-1.019 -1.919,-1.519 -2.878,-2.038 z m 5.757,4.157 c 1.978,0.48 2.958,-1.998 0.5,-0.999 z m -26.904,-64.680001 h -1.4 c 0,1.599 0.94,3.178 2.34,4.237 -1.4,-1.579 -0.46,-2.638 0.459,-2.119 z m 65.840003,5.677 c 1.44,-1.54 5.756,-9.275 6.716,-4.638 -0.96,-0.5 -1.919,0 -2.399,1.04 z M 36.951267,100.14124 c 1.919,-2.599001 5.277,-3.638001 8.155,-4.158001 z m 62.922,-85.709001 c 0.500003,-1.998 2.938003,-3.517 4.877003,-1.998 -0.96,0 -2.439,0.5 -3.398,1.499 z m -17.829,-0.559 c -1.44,-2.958 2.878,-1.959 3.837,-0.48 -0.96,-1 -1.919,-0.5 -2.878,0 z m -10.954,-10.1939995 c 0.94,-1.08 2.799,-0.54 1.88,0.54 -0.48,0.54 0,0 -0.48,0 z m 45.153003,-0.44 c -0.5,0 -0.5,0 -1.02,0.48 1.02,0.48 1.52,0.48 1.52,0 v -0.48 z M 47.505267,124.68624 c 0.48,1.559 1.439,2.059 1.439,4.117 0,2.06 -1.92,5.657 -2.399,8.215 -1.439,5.637 -1.919,12.313 -3.358,18.49 -1.439,7.175 -3.858,13.85 -6.256,21.046 -1.919,4.618 -3.858,9.235 -4.817,13.852 a 83.77,83.77 0 0 0 -1.44,15.41 c -0.479,7.696 0.48,13.353 -5.776,18.49 -6.256,5.116 -2.398,-12.853 -1.919,-14.892 1.92,-8.734 1.44,-17.969 5.297,-26.184 2.878,-6.176 5.777,-12.832 8.175,-19.508 1.44,-4.637 2.399,-10.274 3.358,-15.41 0.96,-5.657 2.898,-10.774 5.297,-15.91 z m 10.494,2.099 c -3.359,5.656 -5.258,14.37 -7.176,20.527 -1.92,7.695 -2.859,16.41 -4.298,24.106 -0.48,3.597 -1.919,6.675 -2.878,10.273 -0.94,3.078 -1.42,6.656 -1.899,10.254 -1.44,6.156 -4.317,12.832 -2.878,19.488 0.48,-7.695 8.615,-11.793 12.432,-16.93 1.44,-2.558 0.48,-4.097 0,-6.655 -0.48,-5.657 0,-11.294 0.48,-16.93 0.48,-5.137 0.48,-10.274 1.44,-15.39 0.938,-4.618 2.857,-9.235 2.857,-13.852 0.96,-6.676 1.92,-13.872 3.338,-20.028 z m 9.214,-23.126 c 0,5.656 -1.42,11.812 -1.9,17.469 0,5.137 -0.479,10.773 -0.939,15.91 -0.96,5.137 -1.439,7.696 0,12.833 0.94,5.136 1.42,11.293 3.318,15.91 2.839,-8.215 5.197,-16.93 7.096,-25.665 1.42,-5.136 0.48,-10.273 0,-15.39 -0.46,-5.657 -3.318,-10.794 -3.778,-16.43 z m -7.636,55.966 c 0.94,3.617 -0.96,9.794 -0.96,13.911 0,3.598 0,7.716 0.96,10.794 0.94,-2.06 3.318,-4.618 3.778,-7.196 1.42,-3.098 -0.94,-7.216 -1.42,-10.813 z m -54.3670004,41.495 c 0,8.235 -1.919,16.45 1.919,24.165 1.44,3.078 3.3380004,4.617 4.7770004,1.02 1.44,-5.637 0.96,-12.333 1.919,-17.47 0.48,-5.137 0.96,-10.794 2.858,-15.41 1.919,-4.118 3.838,-8.236 5.757,-12.333 3.338,-7.716 3.817,-15.431 6.676,-23.146 -2.859,5.157 -5.257,10.293 -8.115,15.95 -4.318,7.196 -10.054,12.832 -13.3920004,20.548 z m 28.3830004,-81.451 c -0.5,2.059 -2.419,4.097 -3.378,5.636 -1.919,2.559 -3.838,4.618 -5.277,7.176 -2.898,4.098 -4.817,5.637 -6.736,9.734 -2.418,4.617 -6.256,14.871 -6.736,19.488 -0.48,4.098 -4.3370004,12.813 -2.8780004,16.39 1.4400004,-1.019 5.2770004,-10.233 6.2360004,-11.772 1.46,-2.579 2.899,-4.618 4.338,-6.676 2.878,-5.637 4.797,-11.793 6.736,-17.43 0.959,-3.078 2.878,-5.636 4.317,-8.714 0.96,-2.559 1.919,-5.117 3.378,-7.676 2.399,-4.097 5.756,-7.175 8.155,-11.293 -1.44,2.059 -3.838,4.118 -6.236,5.137 z m 9.994,-12.333 c 3.378,-2.558 5.796,-7.195 9.174,-10.273001 2.899,-2.06 5.297,-4.118 5.297,-7.716 -2.398,3.098 -5.776,5.657 -6.736,9.255 z m 25.984,-27.344001 c -1.459,1.04 -5.337,3.619 -5.816,5.158 -0.5,1.02 0.48,5.656 0.96,6.676 2.438,-2.559 1.458,-7.196 5.336,-9.774 z"
       fill="#ffffff"
       fill-rule="evenodd"
       fill-opacity="1"
       stroke="none"
       id="path51" />
    <path
       d="m 71.989267,85.669239 c -1.478,3.618 -3.937,7.236 -3.437,11.354 1.479,-3.079 3.438,-5.157 6.376,-6.696 -0.48,-1.04 -0.98,-2.06 -0.98,-3.098 z"
       fill="#c1c2c2"
       fill-rule="evenodd"
       fill-opacity="1"
       stroke="none"
       id="path53" />
    <path
       d="m 140.34927,124.68624 c -0.48,1.559 -1.46,2.059 -1.46,4.117 0,2.06 1.939,5.657 2.419,8.215 1.439,5.637 1.919,12.313 3.358,18.49 1.439,7.175 3.857,13.85 6.256,21.046 1.919,4.618 3.858,9.235 4.817,13.852 a 83.77,83.77 0 0 1 1.44,15.41 c 0.479,7.696 -0.48,13.353 5.776,18.49 6.236,5.116 2.878,-12.853 1.918,-14.892 -1.918,-8.734 -1.439,-17.969 -4.817,-26.184 -3.358,-6.176 -5.756,-12.832 -8.654,-19.508 -1.44,-4.637 -1.92,-10.274 -2.879,-15.41 -1.439,-5.657 -3.378,-10.774 -5.776,-15.91 z m -10.714,2.099 c 3.358,5.656 5.297,14.37 7.215,20.527 1.92,7.695 2.899,16.41 4.338,24.106 0.48,3.597 1.919,6.675 2.878,10.273 0.98,3.078 1.46,6.656 1.939,10.254 1.439,6.156 4.317,12.832 2.878,19.488 -0.48,-7.695 -8.655,-11.793 -12.512,-16.93 -1.44,-2.558 -0.48,-4.097 0,-6.655 0.48,-5.657 0,-11.294 -0.48,-16.93 -0.48,-5.137 -0.48,-10.274 -1.44,-15.39 -0.479,-4.618 -2.418,-9.235 -2.897,-13.852 -0.48,-6.676 -1.92,-13.872 -3.378,-20.028 z m -8.595,-23.126 c 0,5.656 0.98,11.812 1.46,17.469 0.479,5.137 0.479,10.773 0.958,15.91 0.96,5.137 1.44,7.696 0.48,12.833 -1.439,5.136 -1.919,11.293 -3.857,15.91 -2.899,-8.215 -5.317,-16.93 -7.236,-25.665 -0.98,-5.136 -0.48,-10.273 0,-15.39 0.96,-5.657 3.378,-10.794 4.337,-16.43 z m 7.695,55.966 c -1.459,3.617 0.48,9.794 0.48,13.911 0,3.598 0,7.716 -0.48,10.794 -1.459,-2.06 -3.398,-4.618 -4.377,-7.196 -1.46,-3.098 0.98,-7.216 1.46,-10.813 z m 54.367,41.495 c -0.48,8.235 1.44,16.45 -2.398,24.165 -1.44,3.078 -3.378,4.617 -4.338,1.02 -1.918,-5.637 -1.439,-12.333 -2.398,-17.47 -0.48,-5.137 -0.96,-10.794 -2.898,-15.41 -1.44,-4.118 -3.838,-8.236 -5.777,-12.333 -3.358,-7.716 -3.838,-15.431 -6.256,-23.146 2.898,5.157 4.817,10.293 7.715,15.95 4.318,7.196 10.094,12.832 13.472,20.548 z m -28.423,-81.451 c 0,2.059 1.94,4.097 3.379,5.636 1.459,2.559 3.377,4.618 4.817,7.176 2.898,4.098 4.817,5.637 7.235,9.734 1.919,4.617 5.777,14.871 6.756,19.488 0,4.098 3.838,12.813 2.878,16.39 -1.918,-1.019 -5.776,-10.233 -6.736,-11.772 -1.459,-2.579 -2.898,-4.618 -4.337,-6.676 -2.898,-5.637 -4.817,-11.793 -6.756,-17.43 -0.96,-3.078 -2.898,-5.636 -4.337,-8.714 -0.96,-2.559 -1.919,-5.117 -3.378,-7.676 -2.399,-4.097 -5.777,-7.175 -8.195,-11.293 1.459,2.059 4.337,4.118 6.756,5.137 z m -10.113,-12.333 c -3.838,-2.558 -6.237,-7.195 -9.594,-10.273001 -2.879,-2.06 -5.277,-4.118 -4.798,-7.716 1.92,3.098 5.277,5.657 6.716,9.255 z m -26.384,-27.344001 c 1.439,1.04 5.217,3.619 5.696,5.158 0.46,1.02 -0.48,5.656 -0.96,6.676 -2.358,-2.559 -1.418,-7.196 -4.736,-9.774 z"
       fill="#ffffff"
       fill-rule="evenodd"
       fill-opacity="1"
       stroke="none"
       id="path55" />
    <path
       d="m 115.76327,85.669239 c 1.42,3.618 3.778,7.236 3.778,11.354 -1.879,-3.079 -3.778,-5.157 -6.636,-6.696 0.48,-1.04 1.439,-2.06 1.439,-3.098 z"
       fill="#c1c2c2"
       fill-rule="evenodd"
       fill-opacity="1"
       stroke="none"
       id="path57" />
    <path
       d="m 64.814267,137.99824 c -5.317,0.52 -8.695,7.775 -9.674,10.893 0,1.04 0,2.599 0.98,3.638 0.959,0.5 2.418,0 3.377,-1.04 0.48,-0.52 2.898,-2.078 5.317,-3.118 v -10.373"
       fill="none"
       stroke="#9a9b9d"
       stroke-width="1.03937px"
       stroke-linecap="round"
       stroke-linejoin="round"
       stroke-miterlimit="4"
       stroke-dasharray="none"
       stroke-opacity="1"
       id="path59" />
    <path
       d="m 65.294267,177.57424 c 0,-0.52 0.48,-1.02 0.48,-1.54 h -1.92 c 0,-0.519 0.48,-2.058 0.48,-2.558 -0.48,-1.04 -0.96,0 -1.939,-0.52 0,0 0,0 0,0 -0.48,-1.019 -0.48,-1.538 -0.959,-2.058 0.48,-0.52 0.48,-1.54 0.48,-2.559 h -0.96 c 0,0 -0.48,-0.52 -0.48,-1.039 0.48,-1.02 0.48,-2.039 -0.499,-2.039 0,-0.52 -0.48,-0.52 -0.48,-1.04 0.48,-1.018 0.98,-1.538 0.98,-2.558 h -1.46 c 0,-1.039 0.48,-2.058 0.96,-2.578 -3.378,0.52 -0.96,-1.54 -1.44,-2.558 -0.479,-0.52 -0.479,-0.52 -0.959,-0.52 v -3.578 h -1.459 c -0.48,-0.52 -0.96,-1.04 -0.96,-1.559 -0.499,6.676 3.379,20.028 7.716,29.262 m 6.256,-93.383001 c -6.716,1.04 -11.513,1.559 -13.911,3.118 -0.96,1.04 -1.44,2.598 -0.48,3.638 0.48,1.04 1.919,1.559 3.358,0.52 1.44,-1.04 6.716,-1.56 11.513,-2.08 l 7.675,-1.558 c -0.959,-1.04 -1.439,-2.599 -2.398,-4.678 z"
       fill="none"
       stroke="#9a9b9d"
       stroke-width="1.03937px"
       stroke-linecap="round"
       stroke-linejoin="round"
       stroke-miterlimit="4"
       stroke-dasharray="none"
       stroke-opacity="1"
       id="path61" />
    <path
       d="m 52.262267,96.582239 0.48,-0.499 c 0.48,-0.52 0,-0.52 0.959,-0.52 0.48,-0.52 0.48,0 0.96,-0.52 0.479,0 0.479,-0.519 0.959,-0.519 -0.48,-0.52 -0.96,-0.52 -0.96,-1.02 -0.48,-0.519 -0.48,-1.558 -0.48,-2.078 v -0.52 m 15.851,74.915001 c -1.42,-3.078 -2.379,-6.676 -3.338,-9.754 -4.757,-14.911 0,-34.939 4.757,-50.37 m 61.643003,43.215 c 0,-3.599 -4.837,-12.353 -9.175,-9.255 0,2.059 -0.5,6.176 -0.5,8.754 2.419,1.02 5.337,2.559 5.817,3.079 0.48,1.039 1.939,1.539 2.898,1.039 1.44,-1.04 0.96,-2.059 0.96,-3.618"
       fill="none"
       stroke="#9a9b9d"
       stroke-width="1.03937px"
       stroke-linecap="round"
       stroke-linejoin="round"
       stroke-miterlimit="4"
       stroke-dasharray="none"
       stroke-opacity="1"
       id="path63" />
    <path
       d="m 122.87927,177.59424 c 0,-0.52 -0.5,-1.04 -0.5,-1.54 h 1.959 c 0,-0.519 -0.48,-2.058 -0.48,-2.578 0.48,-1.02 0.96,0 1.94,-0.52 0,0 0,0 0,0 0.479,-1.019 0.479,-1.538 0.978,-2.038 0,-0.52 -0.5,-1.56 -0.5,-2.579 h 0.98 c 0.48,0 0.48,-0.52 0.48,-1.019 0,-1.04 -0.48,-2.059 0.5,-2.059 0.48,-0.52 0.48,-0.52 0.48,-1.02 -0.48,-1.038 -0.48,-1.558 -0.48,-2.578 h 0.959 c 0,-1.019 -0.48,-2.058 -0.48,-2.558 2.919,0.5 0.48,-1.54 0.98,-2.578 0.48,-0.52 0.48,-0.52 0.96,-0.52 0,-1.54 0,-2.559 0.499,-3.578 h 0.96 c 0.499,-0.52 0.979,-1.04 0.979,-1.559 0.48,6.696 -2.919,20.548 -6.816,30.302 m -12.912,-95.463001 c -0.48,2.08 -1.44,3.638 -2.419,4.678 l 7.735,1.559 c 4.837,0.52 10.154,1.04 12.073,2.078 0.96,1.04 2.419,0.52 2.898,-0.52 0.96,-1.039 0.48,-2.598 -0.48,-3.637 -2.418,-1.56 -6.755,-2.079 -14.01,-3.118 z"
       fill="none"
       stroke="#9a9b9d"
       stroke-width="1.03937px"
       stroke-linecap="round"
       stroke-linejoin="round"
       stroke-miterlimit="4"
       stroke-dasharray="none"
       stroke-opacity="1"
       id="path65" />
    <path
       clip-path="url(#a)"
       d="m 80.411,74.355 c -3.857,9.754 -12.992,8.735 -18.269,18.469 -5.776,9.234 -32.72,34.379 -40.415,53.867 -7.696,19.508 -20.688,90.805 -2.878,92.344 17.789,1.54 59.164,-53.348 65.9,-79.512 6.716,-26.164 5.756,-43.613 -5.297,-60.543 0,0 3.838,-6.156 5.776,-5.117"
       fill="none"
       stroke="#000000"
       stroke-width="1.03937px"
       stroke-linecap="round"
       stroke-linejoin="round"
       stroke-miterlimit="4"
       stroke-dasharray="none"
       stroke-opacity="1"
       id="path67"
       transform="translate(-9.3807334,-0.95776052)" />
    <path
       d="m 60.976267,92.425239 c -4.797,12.833001 -15.39,22.567001 -21.627,33.840001 -7.695,13.832 -13.471,28.703 -21.646,42.534 -6.257,9.754 -12.0330004,16.41 -15.8900004,27.164"
       fill="none"
       stroke="#000000"
       stroke-width="1.03937px"
       stroke-linecap="round"
       stroke-linejoin="round"
       stroke-miterlimit="4"
       stroke-dasharray="none"
       stroke-opacity="1"
       id="path69" />
    <path
       d="m 54.660267,104.73824 c -5.277,11.293 -8.635,19.508 -13.911,30.801 -6.716,13.872 -8.635,29.263 -13.432,43.134 -4.797,12.832 -9.115,26.684 -10.074,40.536 -0.96,6.156 -0.48,11.812 -0.96,17.449 m 39.336,-40.696 c 0.5,-7.155 0.5,-19.468 0.98,-27.143 0.96,-11.793 2.878,-23.566 4.817,-35.358 2.399,-12.293 1.919,-25.105 4.817,-37.398001 1.44,-7.175 5.297,-12.812 7.696,-14.351"
       fill="none"
       stroke="#000000"
       stroke-width="1.03937px"
       stroke-linecap="round"
       stroke-linejoin="round"
       stroke-miterlimit="4"
       stroke-dasharray="none"
       stroke-opacity="1"
       id="path71" />
    <path
       d="m 59.937267,141.19624 c 1.44,8.695 2.878,16.89 5.277,25.584 0.48,3.058 2.398,6.137 1.919,9.195 m -34.04,47.811 c -0.98,-15.39 3.838,-32.32 8.655,-47.711 4.317,-13.852 5.277,-28.723 9.134,-43.094 2.879,-11.813 9.135,-22.586 11.054,-34.380001 0.48,-3.597 0.48,-14.37 -0.96,-14.89"
       fill="none"
       stroke="#000000"
       stroke-width="1.03937px"
       stroke-linecap="round"
       stroke-linejoin="round"
       stroke-miterlimit="4"
       stroke-dasharray="none"
       stroke-opacity="1"
       id="path73" />
    <path
       d="m 48.444267,118.01024 c -0.5,3.618 1.939,5.676 5.337,5.676 m -19.828,-8.674 c 6.756,2.038 15.89,-10.754 20.707,-15.351001 1.919,-1.539 3.838,-3.078 5.277,-5.637 m 18.329,-76.913 c -2.379,1.04 -4.757,2.059 -6.196,3.598 -5.257,5.097 -5.257,10.214 -4.298,18.908 0.48,2.06 0.96,3.578 1.44,4.598 10.973,-8.175 12.872,-20.968 9.054,-27.104 m 6.296,-1.019 c 1.919,0 3.838,0.52 5.757,1.019 h 0.48 c -0.48,-4.097 -5.278,-7.1959995 -8.156,-6.156 -2.878,1.02 -2.398,3.598 -1.439,5.656 0.96,-0.52 2.399,-0.52 3.358,-0.52 m -7.276,74.336 c 4.318,8.215 10.554,12.312001 16.79,12.312001 m -28.303,-12.852001 c 3.838,-1 5.277,-2.499 7.196,1.979 m -1.519,-39.476 c -4.797,-1.54 -10.074,-5.637 -11.993,-9.754 -0.96,-1.02 -2.398,-1.54 -3.358,-0.5 -0.96,0.5 -1.439,2.039 -0.48,3.578 0.48,1.04 7.676,12.812 14.872,15.37 0,-3.058 0.48,-6.136 0.959,-8.694 m -1.359,45.632 c -1.919,2.598001 -4.797,1.56 -4.797,4.157001"
       fill="none"
       stroke="#000000"
       stroke-width="1.03937px"
       stroke-linecap="round"
       stroke-linejoin="round"
       stroke-miterlimit="4"
       stroke-dasharray="none"
       stroke-opacity="1"
       id="path75" />
    <path
       clip-path="url(#a)"
       d="m 66.04,40.655 c 0,-1.019 0.48,-1.539 0,-2.578 -0.48,0 -0.96,0.52 -1.44,0.52 v -3.598 c -0.479,0 -0.959,0 -0.959,0.52 -0.48,-1.54 0,-2.579 0,-3.598 -0.48,0 -0.959,0.5 -1.439,0.5 0,0 0,0 0,0 0,-1.02 0.48,-2.06 0.48,-3.079 -0.48,0.52 -0.96,0.52 -0.96,0.52 0,-0.52 0.48,-1.56 0.48,-2.579 0,0.52 -0.96,0.52 -0.96,0.52 0,-0.52 0,-1.559 0.48,-2.578 -1.439,0 -1.439,-1.54 -0.959,-2.579 h -0.96 c 0,-1.02 0.48,-2.058 0.48,-3.078 h -0.979 c 0,-0.52 0.5,-2.059 0.5,-2.578 -0.5,0.52 -0.98,0.52 -1.46,0.52 0.48,-0.52 0.48,-2.06 0.48,-2.579 0,0 -0.48,0.52 -0.96,0.52 v -1.54 c 0,0 -0.479,0.52 -0.479,0 0,-0.52 -0.48,-1.039 0,-1.538 -0.48,0.5 -1.439,0.5 -1.439,1.019 -0.48,-0.52 -0.96,-1.54 -0.96,-2.059 0,0.52 -0.959,0.52 -0.959,0.52 0,-0.52 -0.48,-1.04 -0.48,-1.54 -0.48,0 -1.459,0 -1.459,0.5 0,-0.5 -0.48,-1.019 -0.48,-1.539 0,0.52 -0.959,0.52 -1.438,1.04 0,-0.52 -0.48,-0.52 -0.48,-1.04 -0.48,0 -0.96,0 -1.44,0.52 0,-0.52 -0.479,-2.059 -0.479,-2.059 -0.96,0.52 -1.919,0 -1.919,-1.539 0,0.52 -0.96,0.52 -1.459,1.02 0,-0.5 -0.48,-1.02 -0.48,-1.54 -0.48,0.52 -0.959,0.52 -1.439,0.52 0,-0.52 -0.48,-1.04 -0.48,-1.539 0,0.5 -0.959,0.5 -0.959,1.02 0,0 0,-0.52 -0.48,-0.52 V 3.098 c -0.48,0.52 -0.959,0.52 -1.439,1.04 -0.48,-1.04 -1.439,-3.099 -1.939,-2.579 0,0 0.5,3.098 0.5,3.598 0,0.52 0,0.52 0.48,1.04 2.878,3.597 13.452,8.734 17.79,10.293 0.959,6.156 2.877,16.97 9.134,27.243 0,0 0,-0.5 0.48,-0.5 0.479,-0.519 0.959,-0.519 1.438,-0.519 -0.48,-0.52 -0.959,-1.02 -0.959,-2.059"
       fill="none"
       stroke="#000000"
       stroke-width="1.03937px"
       stroke-linecap="round"
       stroke-linejoin="round"
       stroke-miterlimit="4"
       stroke-dasharray="none"
       stroke-opacity="1"
       id="path77"
       transform="translate(-9.3807334,-0.95776052)" />
    <path
       d="m 52.821267,91.866239 c -2.398,1.04 -4.797,2.078 -6.736,3.098 -5.776,2.578 -10.573,4.637 -12.992,7.735001 -3.837,0 -24.5450004,0.5 -29.8220004,3.078 -0.48,0 -0.98,0 -0.98,0.52 0,0 0,0 0,0 0,0 0,0 0,0 v 0.52 c 0,0 0,0 0,0 0,1.02 0,2.058 0.5,2.558 0,-0.5 0.48,-0.5 0.96,-0.5 0.48,0 0.48,-0.52 0.96,-1.039 0.48,0 0.48,0.52 0.959,1.04 0,-0.52 0.48,-1.04 0.96,-1.56 0,0.52 0.479,1.04 0.479,1.04 0.48,0 0.96,-1.04 1.44,-1.04 0.499,0 0.499,0.52 0.979,1.04 0.4800004,0 0.9590004,-1.04 1.4390004,-1.54 0.48,0 0.96,1.02 0.96,1.02 0.479,0 0.959,-0.52 1.438,-1.02 0.48,0 0.96,0.5 1.44,0.5 0.979,0 0.979,-1.019 1.938,0 1.44,-1.539 1.919,-0.5 2.878,0 0.48,-1.539 0.96,-0.5 1.44,-0.5 h 0.979 c 0.48,0 0.96,-0.519 0.96,-0.519 0.48,0 0.48,0.52 0.48,0.52 0.479,0 0.959,-0.52 1.438,-0.52 0.48,0 0.48,0.52 0.96,0.52 0.48,-0.52 0.48,-0.52 0.959,-0.52 0.48,0 0.48,-0.52 0.98,-0.52 0.48,0 0.48,0.52 0.959,0.52 0.48,0 0.48,-0.52 1.439,-0.52 0.48,0 0.96,0.52 1.44,0.52 l 0.479,-0.52 c 0.48,0 1.439,0.52 1.439,0.52 0,-0.52 0,-0.52 0.48,-0.52 0,0 0.5,0.52 0.98,0.52 0,-1.04 0.479,-1.54 0.959,-2.578 0.48,0.52 0.959,0.52 1.439,0.52 0,-0.52 0,-1.54 0.48,-1.54 0.479,-0.52 0.479,0 0.959,0 0,-0.52 0.48,-1.04 0.96,-1.559 0,0 0.479,1.04 0.979,1.04 0,-1.04 0.48,-1.56 0.959,-2.06 0,0.5 0.48,0.5 0.96,0.5 0,-0.5 0.48,-1.539001 0.959,-1.539001 0.48,0 0.48,0.52 0.96,1.040001 0.479,-1.040001 0.479,-1.040001 0.959,-1.560001 l 0.48,0.52 c 0,-2.058 1.938,0 2.418,-0.52 0.48,-0.499 0,-1.538 0.48,-1.019 m 15.35,85.708001 c 0.96,2.06 1.92,4.098 2.399,5.117 0.96,2.059 3.358,6.676 0.48,10.774 l -0.48,0.52 -16.31,20.487 c -0.96,1.54 -1.44,3.598 -0.48,3.598 0.48,1.02 0.96,1.539 1.919,2.039 0,-1.02 0,-2.559 0.48,-3.578 0.48,0 1.439,0.52 2.398,0 -0.96,-1.54 0,-3.598 1.919,-2.559 v -2.058 c 0.48,-0.5 1.44,0 1.919,-0.5 0.48,-0.52 0,-1.54 0.48,-2.059 0.48,-1.02 1.439,-1.02 2.398,-1.02 0,-3.597 0,-2.578 2.878,-3.077 -1.439,-2.559 1.44,-3.079 3.358,-3.598 -0.96,-2.039 0,-3.578 2.399,-3.578 -0.48,-1.54 0,-3.078 1.919,-3.078 -0.48,-1.02 -0.48,-2.559 0.96,-2.559 -0.48,-1.039 -0.96,-2.578 0.479,-3.078 -1.44,-1.02 -0.96,-3.078 0.48,-3.598 -1.44,0.52 -1.44,-1.019 -0.96,-2.558 -2.878,0.52 -2.878,0 -1.919,-2.559 -0.96,0 -1.919,0.5 -2.398,0.5 -0.48,-0.5 -0.48,-1.02 -0.48,-1.02 0,-1.019 0.48,-1.538 0,-2.038 -0.48,-1.539 -1.44,-1.04 -1.919,-1.539 0,-0.52 -0.48,-0.52 -0.48,-0.52 0,-0.52 0,-1.02 0.48,-2.058 m 61.963003,-38.457 c -1.42,8.695 -2.839,16.89 -4.738,25.584 -0.939,3.058 -2.378,6.137 -2.378,9.195 M 94.196267,40.717239 c 8.655003,0.52 13.932003,1.539 21.627003,7.735 0,0 3.358,0 4.797,-8.775 0.96,-8.774 0.96,-13.951 -3.837,-19.108 -3.358,-3.098 -8.156,-4.657 -12.973,-4.657 -2.878,0 -7.195003,1.04 -9.614003,2.598 0,0 0,0 0,0 -2.398,-1.559 -6.716,-2.598 -9.594,-2.598 -4.337,0 -9.614,1.559 -12.492,4.657 -5.297,5.157 -5.297,10.334 -4.318,19.108 1.44,8.775 4.797,8.775 4.797,8.775 7.676,-6.196 12.972,-7.216 21.607,-7.735"
       fill="none"
       stroke="#000000"
       stroke-width="1.03937px"
       stroke-linecap="round"
       stroke-linejoin="round"
       stroke-miterlimit="4"
       stroke-dasharray="none"
       stroke-opacity="1"
       id="path79" />
    <path
       d="m 109.94727,17.111239 c 2.438,1.04 4.857,2.059 6.796,3.598 4.837,5.097 4.837,10.214 3.877,18.908 -0.48,2.06 -0.98,3.578 -1.459,4.598 -11.153,-8.175 -13.092,-20.968 -9.214,-27.104 m -6.177,-1.019 c -1.459,0 -3.897003,0.52 -5.836003,1.019 h -0.5 c 0.98,-4.097 5.357003,-7.1959995 8.275003,-6.156 2.918,1.02 2.439,3.598 1.96,5.656 -1.46,-0.52 -2.44,-0.52 -3.899,-0.52 m 7.176,74.336 c -4.337,8.215 -10.114,12.312001 -16.870003,12.312001 m -21.587,-0.56 c 0,-0.5 0.48,-1.019 0.48,-1.519 2.399,-7.675001 4.317,-10.233001 4.317,-10.233001 0,0 0,0 0,0 -3.357,-5.637 -5.756,-13.312 -6.715,-23.026 -0.96,-7.676 0.959,-16.39 1.918,-18.949 M 116.78327,168.37924 c -5.777,12.353 -13.972,22.627 -22.667003,22.627 -8.674,0 -16.87,-9.754 -22.666,-22.107"
       fill="none"
       stroke="#000000"
       stroke-width="1.03937px"
       stroke-linecap="round"
       stroke-linejoin="round"
       stroke-miterlimit="4"
       stroke-dasharray="none"
       stroke-opacity="1"
       id="path81" />
    <path
       d="m 116.78327,105.69724 c 4.797,15.431 9.594,35.479 4.797,50.39 -0.96,3.098 -1.92,6.176 -3.358,9.254"
       fill="none"
       stroke="#9a9b9d"
       stroke-width="1.03937px"
       stroke-linecap="round"
       stroke-linejoin="round"
       stroke-miterlimit="4"
       stroke-dasharray="none"
       stroke-opacity="1"
       id="path83" />
    <path
       d="m 115.74327,48.452239 c 0.96,2.578 2.878,11.273 1.919,18.969 -0.96,9.714 -3.358,17.409 -6.716,23.046 0,0 0,0 0,0 0,0 1.919,2.558 4.317,10.233001 0,0.52 0.48,1.54 0.96,2.04"
       fill="none"
       stroke="#000000"
       stroke-width="1.03937px"
       stroke-linecap="round"
       stroke-linejoin="round"
       stroke-miterlimit="4"
       stroke-dasharray="none"
       stroke-opacity="1"
       id="path85" />
    <path
       d="m 116.78327,52.390239 c 4.797,-1.54 10.073,-5.637 11.992,-9.754 0.96,-1.02 2.399,-1.54 3.358,-0.5 0.96,0.5 1.44,2.039 0.96,3.578 -0.96,1.04 -7.676,12.812 -14.871,15.37 -0.48,-3.058 -0.96,-6.136 -1.44,-8.694 m 1.839,45.632 c 1.44,2.598001 4.318,1.56 4.798,4.157001"
       fill="none"
       stroke="#000000"
       stroke-width="1.03937px"
       stroke-linecap="round"
       stroke-linejoin="round"
       stroke-miterlimit="4"
       stroke-dasharray="none"
       stroke-opacity="1"
       id="path87" />
    <path
       clip-path="url(#a)"
       d="m 141.614,40.655 c -0.48,-1.019 -0.96,-1.539 -0.48,-2.578 0.48,0 0.96,0.52 1.44,0.52 v -3.598 c 0.48,0 0.959,0 1.439,0.52 0,-1.54 -0.48,-2.579 0,-3.598 0,0 0.48,0.5 0.96,0.5 0,0 0,0 0,0 0,-1.02 -0.48,-2.06 -0.48,-3.079 0.48,0.52 0.959,0.52 0.959,0.52 0,-0.52 0,-1.56 -0.48,-2.579 0,0.52 0.96,0.52 1.44,0.52 -0.48,-0.52 -0.48,-1.559 -0.48,-2.578 1.439,0 0.959,-1.54 0.48,-2.579 h 1.458 c -0.5,-1.02 -0.979,-2.058 -0.979,-3.078 h 1.46 c -0.48,-0.52 -0.48,-2.059 -0.98,-2.578 0.5,0.52 0.98,0.52 1.459,0.52 -0.48,-0.52 -0.48,-2.06 -0.48,-2.579 0,0 0.48,0.52 0.96,0.52 v -1.54 c 0.48,0 0.48,0.52 0.959,0 -0.48,-0.52 0,-1.039 -0.48,-1.538 0.48,0.5 1.44,0.5 1.92,1.019 0,-0.52 0.479,-1.54 0.479,-2.059 0.48,0.52 0.96,0.52 1.439,0.52 v -1.54 c 0.48,0 1.439,0 1.939,0.5 V 9.274 c 0,0.52 1.439,0.52 1.439,1.04 0.48,-0.52 0.48,-0.52 0.48,-1.04 0.48,0 0.959,0 1.439,0.52 0,-0.52 0.48,-2.059 0.48,-2.059 1.439,0.52 1.918,0 1.918,-1.539 0,0.52 0.96,0.52 1.46,1.02 0,-0.5 0.48,-1.02 0.48,-1.54 0.479,0.52 0.958,0.52 1.438,0.52 0,-0.52 0.48,-1.04 0.48,-1.539 0.48,0.5 0.96,0.5 1.439,1.02 v -0.52 c 0,-0.5 0.48,-1.54 0,-2.059 0.48,0.52 0.96,0.52 1.44,1.04 0.479,-1.04 1.438,-3.099 1.918,-2.579 0,0 -0.48,3.098 -0.48,3.598 v 1.04 c -3.358,3.597 -13.931,8.734 -18.269,10.293 -0.48,6.156 -2.878,16.97 -8.654,27.243 -0.48,0 -0.48,-0.5 -0.96,-0.5 -0.48,-0.519 -0.96,-0.519 -1.459,-0.519 0.5,-0.52 0.98,-1.02 1.46,-2.059"
       fill="none"
       stroke="#000000"
       stroke-width="1.03937px"
       stroke-linecap="round"
       stroke-linejoin="round"
       stroke-miterlimit="4"
       stroke-dasharray="none"
       stroke-opacity="1"
       id="path89"
       transform="translate(-9.3807334,-0.95776052)" />
    <path
       d="m 135.89127,91.866239 c 1.939,1.04 4.357,2.078 6.756,3.098 5.297,2.578 10.613,4.637 13.012,7.735001 3.378,0 24.105,0.5 29.882,3.078 0,0 0.48,0 0.48,0.52 0,0 0,0 0,0 0,0 0,0 0,0 v 0.52 c 0,0 0,0 0,0 0,1.02 0,2.058 -0.48,2.558 0,-0.5 -0.48,-0.5 -0.96,-0.5 -0.48,0 -0.48,-0.52 -0.959,-1.039 0,0 -0.48,0.52 -0.48,1.04 -0.48,-0.52 -0.96,-1.04 -1.459,-1.56 0,0.52 -0.48,1.04 -0.48,1.04 -0.48,0 -0.959,-1.04 -1.439,-1.04 -0.48,0 -0.48,0.52 -0.96,1.04 -0.479,0 -0.958,-1.04 -1.458,-1.54 -0.48,0 -0.48,1.02 -0.96,1.02 -0.48,0 -0.959,-0.52 -1.439,-1.02 -0.48,0 -0.48,0.5 -0.96,0.5 -1.458,0 -1.458,-1.019 -2.418,0 -0.96,-1.539 -1.918,-0.5 -2.898,0 -0.48,-1.539 -0.96,-0.5 -1.439,-0.5 h -0.96 c -0.48,0 -0.959,-0.519 -0.959,-0.519 l -0.5,0.52 c -0.48,0 -0.959,-0.52 -1.439,-0.52 -0.48,0 -0.48,0.52 -0.48,0.52 -0.48,-0.52 -0.959,-0.52 -1.439,-0.52 0,0 -0.5,-0.52 -0.979,-0.52 0,0 -0.48,0.52 -0.96,0.52 -0.48,0 -0.48,-0.52 -1.438,-0.52 -0.48,0 -0.48,0.52 -1.46,0.52 0,0 0,-0.52 -0.48,-0.52 l -0.959,0.52 -0.48,-0.52 c -0.48,0 -0.959,0.52 -1.439,0.52 0.48,-1.04 -0.48,-1.54 -0.979,-2.578 -0.48,0.52 -0.96,0.52 -1.44,0.52 0,-0.52 0,-1.54 -0.479,-1.54 0,-0.52 -0.48,0 -0.96,0 0,-0.52 0,-1.04 -0.979,-1.559 0,0 -0.48,1.04 -0.96,1.04 0,-1.04 -0.479,-1.56 -0.958,-2.06 0,0.5 -0.48,0.5 -0.96,0.5 0,-0.5 -0.48,-1.539001 -0.96,-1.539001 -0.499,0 -0.499,0.52 -0.979,1.040001 0,-1.040001 0,-1.040001 -0.96,-1.560001 0,0 0,0.52 -0.479,0.52 0,-1.539 -0.96,-1.019 -1.439,-0.52"
       fill="none"
       stroke="#000000"
       stroke-width="1.03937px"
       stroke-linecap="round"
       stroke-linejoin="round"
       stroke-miterlimit="4"
       stroke-dasharray="none"
       stroke-opacity="1"
       id="path91" />
    <path
       d="m 137.41027,97.062239 c 0,-0.5 0,-1.019 -0.48,-0.5 -0.96,0 -0.96,0.5 -1.439,-0.519 -0.48,-0.52 0,-0.52 -0.48,-0.52 -0.48,-0.5 -0.959,0 -1.439,-0.5 -0.48,0 -0.48,-0.519 -0.96,-0.519 0.48,-0.52 0.96,-0.52 0.96,-1.02 0.48,-0.519 0.48,-1.538 0.48,-2.058 v -0.52"
       fill="none"
       stroke="#9a9b9d"
       stroke-width="1.03937px"
       stroke-linecap="round"
       stroke-linejoin="round"
       stroke-miterlimit="4"
       stroke-dasharray="none"
       stroke-opacity="1"
       id="path93" />
    <path
       d="m 124.81827,183.77024 c -0.96,3.058 -1.92,4.597 -2.879,6.136 -2.898,4.118 -2.418,7.176 -0.48,9.754 1.92,2.559 17.79,22.027 17.79,22.027 0.96,1.54 0,2.059 -0.96,2.059 -0.48,1.02 -0.959,1.539 -1.918,2.039 0,-1.02 0.48,-2.559 0,-3.578 -0.96,0 -1.92,0.52 -2.399,0 0.48,-1.54 -0.5,-3.598 -2.418,-2.559 0,-0.52 0.48,-1.539 0,-2.058 -0.48,-0.5 -1.44,0 -1.92,-0.5 -0.479,-0.52 0.48,-1.54 0,-2.059 -0.959,-1.02 -1.438,-1.02 -2.897,-1.02 0,-3.597 0,-2.578 -2.879,-3.077 1.44,-2.559 -1.439,-3.079 -2.878,-3.598 0.48,-2.039 -0.5,-3.578 -2.898,-3.578 0.48,-1.54 0,-3.078 -1.92,-3.078 0.48,-1.02 0.48,-2.559 -0.959,-2.559 0.96,-1.039 0.96,-2.578 -0.48,-3.078 1.44,-1.02 1.44,-3.078 -0.499,-3.598 1.939,0.52 1.939,-1.019 1.46,-2.558 2.398,0.52 2.398,0 1.918,-2.559 0.48,0 1.44,0.5 1.919,0.5 0.48,-0.5 0.48,-1.02 0.96,-1.02 -0.48,-1.019 -0.48,-1.538 -0.48,-2.038 0.48,-1.539 1.938,-1.04 2.418,-1.539 v -0.52 c 0,-0.52 0,-1.02 -0.48,-2.058"
       fill="none"
       stroke="#000000"
       stroke-width="1.03937px"
       stroke-linecap="round"
       stroke-linejoin="round"
       stroke-miterlimit="4"
       stroke-dasharray="none"
       stroke-opacity="1"
       id="path95" />
    <path
       clip-path="url(#a)"
       d="m 126.523,74.355 c 4.338,9.754 13.012,8.735 18.789,18.469 5.297,9.234 32.74,34.379 40.435,53.867 7.696,19.508 20.208,90.805 2.399,92.344 -17.33,1.54 -59.204,-53.348 -65.94,-79.512 -6.756,-26.164 -5.777,-43.613 5.776,-60.543 0,0 -3.857,-6.156 -6.256,-5.117"
       fill="none"
       stroke="#000000"
       stroke-width="1.03937px"
       stroke-linecap="round"
       stroke-linejoin="round"
       stroke-miterlimit="4"
       stroke-dasharray="none"
       stroke-opacity="1"
       id="path97"
       transform="translate(-9.3807334,-0.95776052)" />
    <path
       d="m 127.73627,92.425239 c 4.337,12.833001 14.89,22.567001 21.147,33.840001 8.155,13.832 13.452,28.703 22.087,42.534 5.776,9.754 11.533,16.41 15.37,27.164"
       fill="none"
       stroke="#000000"
       stroke-width="1.03937px"
       stroke-linecap="round"
       stroke-linejoin="round"
       stroke-miterlimit="4"
       stroke-dasharray="none"
       stroke-opacity="1"
       id="path99" />
    <path
       d="m 132.61327,102.73924 c 5.297,11.293 9.614,21.567 14.91,32.84 6.737,13.852 8.656,29.263 13.932,43.114 4.818,12.812 8.655,26.684 10.094,40.536 0.48,6.156 0,11.792 0.48,17.429 m -38.936,-40.696 c -0.96,-7.155 -0.96,-19.468 -1.44,-27.143 -0.959,-11.793 -2.398,-23.566 -4.817,-35.358 -2.398,-12.293 -1.918,-25.105 -4.817,-37.398001 -1.439,-7.175 -4.817,-12.812 -7.235,-14.351 m 40.935,142.074001 c 0.48,-15.39 -3.838,-32.32 -9.135,-47.711 -4.317,-13.852 -4.797,-28.723 -8.654,-43.094 -3.358,-11.813 -9.614,-22.586 -11.054,-34.380001 -0.979,-3.597 -0.979,-14.37 0.48,-14.89"
       fill="none"
       stroke="#000000"
       stroke-width="1.03937px"
       stroke-linecap="round"
       stroke-linejoin="round"
       stroke-miterlimit="4"
       stroke-dasharray="none"
       stroke-opacity="1"
       id="path101" />
    <path
       d="m 139.26927,117.53024 c 0.46,3.598 -1.38,6.156 -4.178,6.156 m 19.108,-8.674 c -6.735,2.038 -15.87,-10.754 -20.687,-15.351001 -1.918,-1.539 -3.837,-3.078 -5.296,-5.637 m -5.837,-4.137 c -3.778,-1 -5.217,-2.499 -7.116,1.979"
       fill="none"
       stroke="#000000"
       stroke-width="1.03937px"
       stroke-linecap="round"
       stroke-linejoin="round"
       stroke-miterlimit="4"
       stroke-dasharray="none"
       stroke-opacity="1"
       id="path103" />
  </g>
  <text
     xml:space="preserve"
     style="font-style:normal;font-variant:normal;font-weight:normal;font-stretch:normal;font-size:22.3498px;font-family:'Latin Modern Mono';-inkscape-font-specification:'Latin Modern Mono, Normal';font-variant-ligatures:normal;font-variant-caps:normal;font-variant-numeric:normal;font-variant-east-asian:normal;fill:#ffffff;stroke:#000000;stroke-width:1.9798;stroke-linecap:square"
     x="21.693514"
     y="243.75839"
     id="text599"><tspan
       sodipodi:role="line"
       id="tspan597"
       style="font-style:normal;font-variant:normal;font-weight:normal;font-stretch:normal;font-size:22.3498px;font-family:'Latin Modern Mono';-inkscape-font-specification:'Latin Modern Mono, Normal';font-variant-ligatures:normal;font-variant-caps:normal;font-variant-numeric:normal;font-variant-east-asian:normal;fill:#000000;stroke:none;stroke-width:1.97981"
       x="21.693514"
       y="243.75839">&gt;_ TE-nacious Flies</tspan></text>
</svg>
