<?xml version="1.0" encoding="UTF-8" standalone="no"?>
<!-- Created with Inkscape (http://www.inkscape.org/) -->

<svg
   id="svg2"
   sodipodi:version="0.32"
   inkscape:version="1.2.2 (b0a8486541, 2022-12-01)"
   width="200"
   height="256"
   sodipodi:docname="baboon-note.svg"
   version="1.0"
   inkscape:output_extension="org.inkscape.output.svg.inkscape"
   inkscape:export-filename="baboon-note.png"
   inkscape:export-xdpi="96"
   inkscape:export-ydpi="96"
   xml:space="preserve"
   xmlns:inkscape="http://www.inkscape.org/namespaces/inkscape"
   xmlns:sodipodi="http://sodipodi.sourceforge.net/DTD/sodipodi-0.dtd"
   xmlns="http://www.w3.org/2000/svg"
   xmlns:svg="http://www.w3.org/2000/svg"
   xmlns:rdf="http://www.w3.org/1999/02/22-rdf-syntax-ns#"
   xmlns:cc="http://creativecommons.org/ns#"
   xmlns:dc="http://purl.org/dc/elements/1.1/"><metadata
     id="metadata7"><rdf:RDF><cc:Work
         rdf:about=""><dc:format>image/svg+xml</dc:format><dc:type
           rdf:resource="http://purl.org/dc/dcmitype/StillImage" /></cc:Work></rdf:RDF></metadata><defs
     id="defs5"><inkscape:perspective
       sodipodi:type="inkscape:persp3d"
       inkscape:vp_x="0 : 208.98901 : 1"
       inkscape:vp_y="0 : 1000 : 0"
       inkscape:vp_z="500 : 208.98901 : 1"
       inkscape:persp3d-origin="250 : 125.65568 : 1"
       id="perspective2670" /></defs><sodipodi:namedview
     inkscape:window-height="1011"
     inkscape:window-width="1920"
     inkscape:pageshadow="2"
     inkscape:pageopacity="0.0"
     borderopacity="1.0"
     bordercolor="#666666"
     pagecolor="#ffffff"
     id="base"
     inkscape:showpageshadow="false"
     inkscape:zoom="2.5172494"
     inkscape:cx="55.219002"
     inkscape:cy="118.78044"
     inkscape:window-x="0"
     inkscape:window-y="0"
     inkscape:current-layer="g239"
     showgrid="false"
     inkscape:pagecheckerboard="0"
     inkscape:deskcolor="#d1d1d1"
     inkscape:window-maximized="1" /><g
     id="g4054"><g
       id="g239"><rect
         style="fill:none;stroke:#008000;stroke-width:4.11768;stroke-dasharray:none"
         id="rect507"
         width="145.88232"
         height="195.88231"
         x="27.058838"
         y="30.058846" /><path
         d="m 5.0540856,193.76806 c 0,0.74813 1.496245,1.12219 1.870306,0.37406 0.748122,-0.37406 1.870305,-1.12218 2.244367,0 0.374061,1.12219 0.748122,2.99249 0.374061,4.11468 -0.374061,1.12218 -1.122184,2.99249 -0.748123,3.36655 0.374062,0.37406 0.748123,0.37406 1.122184,0.37406 0.3740614,0.37406 0,1.12218 0,1.8703 0,0.74813 0.7481224,1.12219 1.1221834,1.12219 0.374061,0 1.122184,-0.74813 1.496245,-0.37406 0.748122,0.37406 1.122183,-1.12219 2.618428,-2.99249 1.496244,-1.87031 0.748122,-2.99249 0,-6.35904 -0.374061,-3.36655 0.374061,-5.98498 0.748122,-8.22935 0.374061,-2.24436 1.122183,-6.7331 2.244367,-8.22934 1.122183,-1.49625 3.740611,-1.12219 5.610917,-1.12219 1.870306,0 12.718078,-0.37406 14.962445,-1.12218 2.618428,-0.37406 7.481223,-2.99249 10.847773,-4.11467 3.366551,-1.12219 7.481223,-2.61843 7.481223,-2.61843 0.374061,0.37406 2.244367,2.24437 1.496245,3.74061 -0.748123,1.49625 -1.122184,10.84777 -1.122184,11.96996 0,1.12218 -1.496244,12.34402 -2.992489,14.58838 -1.496244,2.61843 -0.374061,4.11467 0,5.23686 0.374061,1.12218 3.740611,2.99249 5.236856,4.48873 1.870306,1.12219 4.862795,2.24437 5.610917,2.24437 0.748122,0 22.0696,0 23.93991,0 1.8703,0 1.8703,-0.74812 2.24437,-0.74812 0.37406,0 2.61842,-0.37406 4.48873,-0.74813 1.8703,-0.37406 1.12218,-1.12218 1.12218,-1.49624 0,-0.37406 -2.99249,-0.74812 -3.74061,-1.12218 -0.74812,-0.37406 -4.86279,-1.12219 -5.23685,-1.49625 -0.37407,-0.74812 -0.37407,-2.99249 0,-4.11467 0.37406,-1.49625 0.74812,-2.99249 1.8703,-4.11467 1.12218,-1.12219 1.49625,-2.61843 2.24437,-3.74061 0.74812,-1.49625 5.61091,-12.34402 7.855281,-15.71057 2.24437,-3.36655 2.99249,-4.8628 4.48874,-7.10716 1.49624,-2.24437 2.61842,-4.48874 2.61842,-5.61092 0.37406,-1.12218 2.24437,-4.11467 3.36655,-5.23686 1.12219,-1.12218 2.99249,-3.36655 7.10717,-6.7331 4.11467,-2.99249 7.85528,-1.49624 9.35152,-2.61843 1.49625,-1.12218 4.11468,-7.10716 5.23686,-7.48122 0.74812,-0.37406 2.99249,-1.87031 4.11467,-2.24437 1.12219,-0.37406 1.49625,1.87031 1.87031,4.11468 0.37406,1.8703 3.74061,10.47371 4.11467,13.09214 0.37406,2.24436 0.74812,5.61091 2.24437,8.97746 1.49624,3.36655 11.59589,22.44367 12.71808,25.0621 1.12218,2.61843 4.11467,7.85528 4.11467,7.85528 0,0 -0.37406,1.49625 -0.37406,2.61843 0,1.12219 2.24436,2.99249 2.99249,3.36655 0.37406,0 0.74812,0.37406 0.74812,1.12219 0,0.74812 1.12218,1.8703 1.8703,2.61842 0.74813,0.74813 1.87031,0.74813 1.87031,1.12219 0.37406,0.37406 1.12218,0.74812 1.87031,0.74812 0.74812,0 1.49624,-1.12218 2.24436,-0.74812 1.12219,0.37406 4.48874,0.74812 9.72559,0.74812 5.23686,0 4.8628,-0.74812 5.23686,-1.12218 0.37406,-0.37406 -0.74812,-1.12219 -1.87031,-1.12219 -1.12218,0 -7.10716,-1.49624 -8.97747,-2.24436 -1.8703,-0.74813 -4.48873,-3.74062 -5.23685,-4.8628 -1.12218,-1.12218 -2.24437,-5.23685 -2.99249,-6.7331 -0.74812,-1.49624 -3.74061,-13.4662 -4.48873,-15.33651 -0.74813,-1.8703 -2.99249,-7.48122 -3.36655,-8.22934 -0.37407,-0.74812 -1.12219,-7.85528 -2.24437,-11.22183 -1.12218,-3.36655 -2.99249,-7.85529 -4.11467,-8.97747 -0.74813,-1.12219 -0.37406,-2.61843 -0.37406,-4.11468 0,-1.49624 0.37406,-10.84777 0.37406,-11.96995 -0.37406,-1.12219 -2.24437,-9.72559 -2.61843,-10.47372 0,-0.74812 -1.49625,-1.49624 -1.49625,-1.49624 h 1.12219 c 0,0 1.12218,0.74812 3.36655,1.49624 1.8703,0.74813 4.48873,0.74813 5.61091,0.74813 1.12219,0 2.24437,-1.49625 2.61843,-2.24437 0.37406,-0.74812 0,-1.12218 0,-1.12218 0,0 1.87031,0.37406 2.24437,-0.37406 0.37406,-0.74813 0.74812,-2.24437 1.49624,-2.24437 0.37407,0 1.12219,-0.37406 1.12219,-1.12218 0.37406,-1.12219 -0.37406,-1.87031 -1.12219,-2.99249 -1.12218,-1.12219 -6.7331,-8.97747 -7.48122,-10.47372 -0.74812,-1.49624 0.74812,-1.8703 1.87031,-2.24436 1.12218,-0.37406 1.12218,-1.12219 1.12218,-1.87031 0,-0.74812 -0.74812,-2.618427 -2.24437,-3.740611 -1.49624,-2.244367 -12.71808,-9.725589 -15.71056,-10.847773 -2.99249,-1.122183 -4.8628,-0.748122 -8.60341,0 -3.74061,0.748123 -9.35153,4.114673 -11.22183,5.610917 -1.87031,1.496245 -4.48874,4.114673 -6.7331,3.366551 -2.24437,-0.748123 -4.11468,-1.122184 -5.98498,-0.374062 -1.87031,0.748123 -4.11468,7.107158 -4.48874,7.481228 -0.37406,0.37406 -2.61842,0.37406 -4.11467,0.37406 -1.49624,0 -13.840261,1.8703 -18.328991,2.24436 -4.11468,0.37406 -16.08463,3.36655 -20.947425,4.11468 -4.862794,0.74812 -6.359039,-0.74813 -8.229345,-1.49625 -1.870305,-0.74812 -6.359039,-6.7331 -10.473711,-9.351527 -4.114673,-2.618428 -6.733101,-2.244367 -6.733101,-2.244367 -11.221834,0 -16.45869,21.695544 -17.580873,27.680524 -1.496245,5.98498 -5.610917,22.81773 -6.35904,24.31398 -0.748122,1.49624 -4.8627944,7.10716 -4.8627944,8.6034 -0.374061,3.36655 1.4962444,7.48123 2.9924894,7.48123 1.496244,0 2.618428,-2.61843 6.359039,-5.61092 3.740611,-2.99249 2.618428,-7.85529 2.618428,-10.09965 -0.374061,-1.87031 0.374061,-2.24437 1.122183,-5.98498 0.748123,-3.74061 2.99249,-14.58839 4.488734,-22.06961 1.496245,-7.48122 5.984978,-11.96996 7.855284,-13.84026 1.870306,-1.87031 3.740611,-1.12219 6.7331,1.49624 2.99249,2.61843 4.862795,8.22935 4.862795,8.22935 -0.748122,0.37406 -3.740611,4.86279 -5.610917,9.72559 -1.496244,4.86279 -1.122183,14.58838 0.374061,17.58087 1.496245,2.99249 2.244367,4.8628 1.870306,5.23686 -0.374061,0.37406 -0.374061,7.85528 -0.374061,7.85528 0,0 -1.496245,0.37407 -3.740612,1.87031 -2.244366,1.49624 -12.344017,5.61092 -14.588384,6.35904 -2.244367,0.74812 -7.855284,0 -10.099651,0.74812 -1.870305,0 -2.244366,2.24437 -3.740611,5.23686 -1.1221834,2.61843 -2.2443674,6.35904 -2.2443674,7.85528 0.374061,1.49625 1.122184,2.24437 0,2.99249 -0.748122,0.74812 -1.496244,2.99249 -1.870305,4.11467 -0.374062,1.12219 0,2.99249 -0.748123,3.74061 0,0.37407 -0.748122,2.24437 -0.748122,2.99249 z m 65.8347604,1.87031 c 1.870306,-2.61843 3.740603,-13.84026 5.610913,-21.32149 1.87031,-7.48122 2.61843,-13.4662 2.24437,-15.71056 -0.37406,-2.24437 -3.74061,-5.61092 -3.74061,-6.35905 0,-0.74812 -1.122186,-2.99248 -1.122186,-2.99248 0,0 2.992486,1.8703 7.481216,3.36655 4.48874,1.49624 11.5959,2.24436 14.96245,2.24436 0,0 -13.09214,34.41363 -15.33651,38.5283 -2.24436,4.11467 -1.49624,4.8628 -1.8703,8.60341 -0.37406,3.74061 -0.74812,4.86279 -1.12219,4.86279 -0.74812,0 -2.61842,-1.8703 -6.359031,-2.61843 -3.740611,-0.74812 -3.740611,-2.24436 -4.114672,-3.74061 -0.374061,-1.12218 1.496244,-2.61842 3.36655,-4.86279 z"
         id="path346"
         style="fill:#008000;stroke-width:3.74061" /></g></g></svg>
