<?xml version="1.0" encoding="UTF-8" standalone="no"?>
<!-- Created with Inkscape (http://www.inkscape.org/) -->

<svg
   id="svg2"
   sodipodi:version="0.32"
   inkscape:version="1.2.2 (b0a8486541, 2022-12-01)"
   width="200"
   height="256"
   sodipodi:docname="owl-note.svg"
   version="1.0"
   inkscape:output_extension="org.inkscape.output.svg.inkscape"
   inkscape:export-filename="owl-note.png"
   inkscape:export-xdpi="96"
   inkscape:export-ydpi="96"
   xml:space="preserve"
   xmlns:inkscape="http://www.inkscape.org/namespaces/inkscape"
   xmlns:sodipodi="http://sodipodi.sourceforge.net/DTD/sodipodi-0.dtd"
   xmlns="http://www.w3.org/2000/svg"
   xmlns:svg="http://www.w3.org/2000/svg"
   xmlns:rdf="http://www.w3.org/1999/02/22-rdf-syntax-ns#"
   xmlns:cc="http://creativecommons.org/ns#"
   xmlns:dc="http://purl.org/dc/elements/1.1/"><metadata
     id="metadata7"><rdf:RDF><cc:Work
         rdf:about=""><dc:format>image/svg+xml</dc:format><dc:type
           rdf:resource="http://purl.org/dc/dcmitype/StillImage" /></cc:Work></rdf:RDF></metadata><defs
     id="defs5"><inkscape:perspective
       sodipodi:type="inkscape:persp3d"
       inkscape:vp_x="0 : 208.98901 : 1"
       inkscape:vp_y="0 : 1000 : 0"
       inkscape:vp_z="500 : 208.98901 : 1"
       inkscape:persp3d-origin="250 : 125.65568 : 1"
       id="perspective2670" /></defs><sodipodi:namedview
     inkscape:window-height="1011"
     inkscape:window-width="1920"
     inkscape:pageshadow="2"
     inkscape:pageopacity="0.0"
     borderopacity="1.0"
     bordercolor="#666666"
     pagecolor="#ffffff"
     id="base"
     inkscape:showpageshadow="false"
     inkscape:zoom="2.9877083"
     inkscape:cx="132.20836"
     inkscape:cy="160.99296"
     inkscape:window-x="0"
     inkscape:window-y="0"
     inkscape:current-layer="g4054"
     showgrid="false"
     inkscape:pagecheckerboard="0"
     inkscape:deskcolor="#d1d1d1"
     inkscape:window-maximized="1" /><g
     id="g4054"><g
       id="g470"
       transform="translate(-25.000004,-3.9999962)"><rect
         style="fill:none;stroke:#0000ff;stroke-width:4.11768;stroke-dasharray:none"
         id="rect507"
         width="145.88232"
         height="195.88231"
         x="52.058842"
         y="34.058842" /><g
         id="g2441"
         transform="matrix(-0.32232945,0,0,0.32232945,211.56407,38.629446)"
         style="stroke:#0000ff"><g
           class="st0"
           id="g2163"
           style="stroke:#0000ff">
	<path
   class="st2"
   d="m 269.5,106 c 0,0 10.5,-25 46,-39.5 35.5,-14.5 34,-24 34,-24 0,0 -4.1,-13 -21,-15.5"
   id="path2089"
   style="stroke:#0000ff" />
	<path
   class="st2"
   d="M 269.5,92.5 C 270,91 257,77.5 234,60 211,42.5 210.5,26.5 210.5,26.5 c 0,0 53.9,-10.9 118,0.5 0,0 -0.5,16 -23.5,33.5 -23,17.5 -36,31 -35.5,32.5"
   id="path2091"
   style="stroke:#0000ff" />
	<path
   class="st2"
   d="m 210.5,26.5 c 0,0 -15.3,2.8 -21,15.8 0,0 -1.5,9.5 34,24 35.5,14.5 46,39.5 46,39.5"
   id="path2093"
   style="stroke:#0000ff" />
	<path
   class="st2"
   d="m 322.8,63.4 c 0,0 12.2,18.1 -5.1,27.4 -17.3,9.3 -23.4,-12.8 -21.1,-14.3"
   id="path2095"
   style="stroke:#0000ff" />
	<path
   class="st3"
   d="m 300.8,73.8 c 0,0 2.4,16.9 13.4,10.2 11,-6.7 1.2,-17.5 1.2,-17.5 z"
   id="path2097"
   style="stroke:#0000ff" />
	<path
   class="st2"
   d="m 217.6,63.8 c 0,0 -12.2,18.1 5.1,27.4 17.3,9.3 23.2,-12.6 20.9,-14.1"
   id="path2099"
   style="stroke:#0000ff" />
	<path
   class="st3"
   d="m 240.1,74.8 c 0,0 -2.9,16.4 -13.9,9.7 C 215.2,77.8 225,67 225,67 Z"
   id="path2101"
   style="stroke:#0000ff" />
	<polygon
   class="st3"
   points="271.7,89.6 269.2,92.6 267.4,89.3 269.5,93 "
   id="polygon2103"
   style="stroke:#0000ff" />
	<polygon
   class="st3"
   points="267.8,102.5 269.5,106 271.2,102.8 269.6,106.8 "
   id="polygon2105"
   style="stroke:#0000ff" />
	<path
   class="st2"
   d="m 269.6,132.5 c 0,0 -15.2,-17.1 -7.1,-37.5"
   id="path2107"
   style="stroke:#0000ff" />
	<path
   class="st2"
   d="m 269.5,132.5 c 0,0 15.2,-17.1 7.1,-37.5"
   id="path2109"
   style="stroke:#0000ff" />
	<polygon
   class="st2"
   points="269.6,132.5 269.9,132 269.3,132 "
   id="polygon2111"
   style="stroke:#0000ff" />
	<path
   class="st3"
   d="m 278.6,105.3 c 0,0 -0.7,0.3 -1.4,1 -0.8,0.8 -1.7,1.9 -1.3,3.4 0.7,2.7 2.9,0.3 2.8,-0.9 -0.2,-1.2 -2.3,-1.7 -2.3,-1.7"
   id="path2113"
   style="stroke:#0000ff" />
	<path
   class="st3"
   d="m 260.4,105.3 c 0,0 0.7,0.3 1.4,1 0.8,0.8 1.7,1.9 1.3,3.4 -0.7,2.7 -2.9,0.3 -2.8,-0.9 0.2,-1.2 2.3,-1.7 2.3,-1.7"
   id="path2115"
   style="stroke:#0000ff" />
	<path
   class="st2"
   d="m 201.2,55.8 c 0,0 -34.2,31 5.2,64.9 0,0 10,7.3 19.3,8.3 9.3,1 19.7,3 29.7,17.7 0,0 3,4.3 3.3,7 0,0 -19.2,-22.8 -35.5,-25"
   id="path2117"
   style="stroke:#0000ff" />
	<path
   class="st2"
   d="m 337.7,55.8 c 0,0 34.2,31 -5.2,64.9 0,0 -10,7.3 -19.3,8.3 -9.3,1 -19.7,3 -29.7,17.7 0,0 -3,4.3 -3.3,7 0,0 19.2,-22.8 35.5,-25"
   id="path2119"
   style="stroke:#0000ff" />
	<path
   class="st2"
   d="m 189.5,42.3 c 0,0 -19.6,66 -9.1,161"
   id="path2121"
   style="stroke:#0000ff" />
	<path
   class="st2"
   d="m 349.5,42.5 c 0,0 13.5,-1.5 12,82 -1.5,83.5 27.5,127 27.5,127 0,0 69,134 61,199 -8,65 -45.5,-72.5 -44.5,-100"
   id="path2123"
   style="stroke:#0000ff" />
	<path
   class="st2"
   d="m 450.6,443.5 c 0,0 25.4,72.5 6.9,83.5 -18.5,11 -80,-83.5 -80,-83.5 0,0 18.5,46 -16,1.5 C 327,400.5 318,389.5 318,389.5 c 0,0 -4.5,7 -25,-20.5"
   id="path2125"
   style="stroke:#0000ff" />
	<path
   class="st2"
   d="M 310.5,348.5 C 312,348 385,402 321,380 c 0,0 -36,-13 -38.5,-18.5"
   id="path2127"
   style="stroke:#0000ff" />
	<path
   class="st2"
   d="m 280.2,348.5 c 0,0 9.8,19.5 -4.2,13 -14,-6.5 -28,-26 -28,-26"
   id="path2129"
   style="stroke:#0000ff" />
	<path
   class="st2"
   d="m 248,323.5 c 0,0 11.5,37 -29.5,-16.5"
   id="path2131"
   style="stroke:#0000ff" />
	<path
   class="st2"
   d="m 223,295.2 c 0,0 0.5,26.2 -19.5,0 C 183.5,269 180.7,252 177.3,232.4 174,213 173.5,184 233.5,187 c 60,3 139.7,36.7 169.3,93.3"
   id="path2133"
   style="stroke:#0000ff" />
	<path
   class="st2"
   d="m 178.6,111.3 c 0,0 13.9,30.2 46.7,27.7 0,0 11.4,-1 18.6,7.8 7.2,8.8 12.2,14.5 25.8,15.2"
   id="path2135"
   style="stroke:#0000ff" />
	<path
   class="st2"
   d="M 318.1,494.4 C 306.6,490.4 293,484 293,484 180,426.5 181,250.9 181,250.9"
   id="path2137"
   style="stroke:#0000ff" />
	<path
   class="st2"
   d="m 389.7,461.4 c 0,0 -15.7,43.1 -22.7,57.1 -7,14 7.7,20.5 11.3,20 3.6,-0.5 17.3,-5.5 21.7,9 4.4,14.5 -21.4,7.5 -21.4,7.5 0,0 -20.1,-9.5 -39.6,-5 0,0 -11.5,4.7 -26.5,15.5 -15,10.8 -22.5,-2 -19.5,-6 3,-4 16.4,-14.5 25,-16.5 8.5,-2 -22.5,-2.5 -25,-1 -2.5,1.5 -20,-1.7 -14,-12.6 6,-10.9 35,4.1 41,0.6 6,-3.5 11,-4.5 9,-11 -2,-6.5 -13.8,-30 -15.6,-35 -1.8,-5 -10.4,-17 -13.4,-52.5"
   id="path2139"
   style="stroke:#0000ff" />
	<path
   class="st2"
   d="m 261.4,462.6 c 0,0 20.5,58.5 26.7,62.6"
   id="path2141"
   style="stroke:#0000ff" />
	<path
   class="st2"
   d="m 318.1,494.4 c 0,0 -3.9,22.4 -9,34.5"
   id="path2143"
   style="stroke:#0000ff" />
	<path
   class="st2"
   d="m 284,525.8 c 0,0 -37,-6.5 -38.7,-7.5 -1.7,-1 -14,-0.9 -12.7,6.9 1.3,7.8 16.3,7.5 19.3,7.8 3,0.3 14.4,-0.3 16,0 0,0 -17.9,6.7 -19.5,12 -1.6,5.3 -3,12 9.7,8.7 12.7,-3.3 18.3,-13.7 28.8,-11.9"
   id="path2145"
   style="stroke:#0000ff" />
	<path
   class="st3"
   d="m 393.3,550.3 c 4.5,-1.5 16.7,1.3 16.7,1.3 0,0 -5.7,-8.3 -16.3,-5.3 0,0 -4,5.2 -0.4,4 z"
   id="path2147"
   style="stroke:#0000ff" />
	<path
   class="st3"
   d="m 301.7,564.4 c -10.3,-0.7 -12,11.8 -12,11.8 0,0 0.4,-12.8 8.5,-14.9 8.1,-2.1 3.5,3.1 3.5,3.1 z"
   id="path2149"
   style="stroke:#0000ff" />
	<path
   class="st3"
   d="m 272.2,537.3 c 0,0 5.8,-8.8 12.5,-6.8 6.7,2 -1.3,5.1 -1.3,5.1 0,0 -6.2,-2.8 -11.2,1.7 z"
   id="path2151"
   style="stroke:#0000ff" />
	<path
   class="st1"
   d="m 255.8,550.1 c -10.5,-2.4 -17.2,11.8 -17.2,11.8 0,0 4.6,-14.2 13.3,-17.3 8.8,-3.1 3.9,5.5 3.9,5.5 z"
   id="path2153"
   style="stroke:#0000ff" />
	<path
   class="st1"
   d="m 222.4,532.3 c 0,0 10.3,-16.6 18.3,-10 8,6.6 -9.6,-0.9 -18.3,10 z"
   id="path2155"
   style="stroke:#0000ff" />
	<path
   class="st2"
   d="m 361.6,109.9 c 0,0 -15.2,31.7 -47.9,29.2 0,0 -11.4,-1 -18.6,7.8 -7.2,8.8 -12.2,14.5 -25.8,15.2"
   id="path2157"
   style="stroke:#0000ff" />
	<path
   class="st2"
   d="m 324.5,508.3 c 0,0 7.7,12 13,14 0,0 4.8,-8.7 4.2,-14 0,0 5.5,11.2 9,15 0,0 7.5,-10.8 8.8,-16 0,0 1.8,15 3,16 0,0 6,-7.7 7.6,-11.5"
   id="path2159"
   style="stroke:#0000ff" />
	<path
   class="st2"
   d="m 278.7,507.9 c 0,0 4.9,6.3 10.4,10.3 0,0 1.8,-6.9 2.7,-10.2 0,0 4,7.8 7.2,11.1 0,0 4,-8.3 4.5,-11.6 0,0 3.7,10.2 5.2,11.8 0,0 6.3,-9.8 6.6,-11.1"
   id="path2161"
   style="stroke:#0000ff" />
</g><path
           class="st4"
           d="m 269.5,106 c 0,0 10.5,-25 46,-39.5 35.5,-14.5 34,-24 34,-24 0,0 -4.1,-13 -21,-15.5"
           id="path2165"
           style="stroke:#0000ff" /><path
           class="st4"
           d="M 269.5,92.5 C 270,91 257,77.5 234,60 211,42.5 210.5,26.5 210.5,26.5 c 0,0 53.9,-10.9 118,0.5 0,0 -0.5,16 -23.5,33.5 -23,17.5 -36,31 -35.5,32.5"
           id="path2167"
           style="stroke:#0000ff" /><path
           class="st4"
           d="m 210.5,26.5 c 0,0 -15.3,2.8 -21,15.8 0,0 -1.5,9.5 34,24 35.5,14.5 46,39.5 46,39.5"
           id="path2169"
           style="stroke:#0000ff" /><path
           class="st4"
           d="m 322.8,63.4 c 0,0 12.2,18.1 -5.1,27.4 -17.3,9.3 -23.4,-12.8 -21.1,-14.3"
           id="path2171"
           style="stroke:#0000ff" /><path
           class="st5"
           d="m 300.8,73.8 c 0,0 2.4,16.9 13.4,10.2 11,-6.7 1.2,-17.5 1.2,-17.5 z"
           id="path2173"
           style="stroke:#0000ff" /><path
           class="st4"
           d="m 217.6,63.8 c 0,0 -12.2,18.1 5.1,27.4 17.3,9.3 23.2,-12.6 20.9,-14.1"
           id="path2175"
           style="stroke:#0000ff" /><path
           class="st5"
           d="m 240.1,74.8 c 0,0 -2.9,16.4 -13.9,9.7 C 215.2,77.8 225,67 225,67 Z"
           id="path2177"
           style="stroke:#0000ff" /><polygon
           class="st5"
           points="271.7,89.6 269.2,92.6 267.4,89.3 269.5,93 "
           id="polygon2179"
           style="stroke:#0000ff" /><polygon
           class="st5"
           points="267.8,102.5 269.5,106 271.2,102.8 269.6,106.8 "
           id="polygon2181"
           style="stroke:#0000ff" /><path
           class="st4"
           d="m 269.6,132.5 c 0,0 -15.2,-17.1 -7.1,-37.5"
           id="path2183"
           style="stroke:#0000ff" /><path
           class="st4"
           d="m 269.5,132.5 c 0,0 15.2,-17.1 7.1,-37.5"
           id="path2185"
           style="stroke:#0000ff" /><polygon
           class="st4"
           points="269.6,132.5 269.9,132 269.3,132 "
           id="polygon2187"
           style="stroke:#0000ff" /><path
           class="st5"
           d="m 278.6,105.3 c 0,0 -0.7,0.3 -1.4,1 -0.8,0.8 -1.7,1.9 -1.3,3.4 0.7,2.7 2.9,0.3 2.8,-0.9 -0.2,-1.2 -2.3,-1.7 -2.3,-1.7"
           id="path2189"
           style="stroke:#0000ff" /><path
           class="st5"
           d="m 260.4,105.3 c 0,0 0.7,0.3 1.4,1 0.8,0.8 1.7,1.9 1.3,3.4 -0.7,2.7 -2.9,0.3 -2.8,-0.9 0.2,-1.2 2.3,-1.7 2.3,-1.7"
           id="path2191"
           style="stroke:#0000ff" /><path
           class="st4"
           d="m 201.2,55.8 c 0,0 -34.2,31 5.2,64.9 0,0 10,7.3 19.3,8.3 9.3,1 19.7,3 29.7,17.7 0,0 3,4.3 3.3,7 0,0 -19.2,-22.8 -35.5,-25"
           id="path2193"
           style="stroke:#0000ff" /><path
           class="st4"
           d="m 337.7,55.8 c 0,0 34.2,31 -5.2,64.9 0,0 -10,7.3 -19.3,8.3 -9.3,1 -19.7,3 -29.7,17.7 0,0 -3,4.3 -3.3,7 0,0 19.2,-22.8 35.5,-25"
           id="path2195"
           style="stroke:#0000ff" /><path
           class="st4"
           d="m 189.5,42.3 c 0,0 -19.6,66 -9.1,161"
           id="path2197"
           style="stroke:#0000ff" /><path
           class="st4"
           d="m 341.8,32.4 c 0,0 21.2,8.6 19.7,92.1 -1.5,83.5 27.5,127 27.5,127 0,0 69,134 61,199 -8,65 -45.5,-72.5 -44.5,-100"
           id="path2199"
           style="stroke:#0000ff" /><path
           class="st4"
           d="m 450.6,443.5 c 0,0 25.4,72.5 6.9,83.5 -18.5,11 -80,-83.5 -80,-83.5 0,0 18.5,46 -16,1.5 C 327,400.5 318,389.5 318,389.5 c 0,0 -5,6.6 -25.5,-20.9"
           id="path2201"
           style="stroke:#0000ff" /><path
           class="st4"
           d="M 310.5,348.5 C 312,348 385,402 321,380 c 0,0 -36,-13 -38.5,-18.5"
           id="path2203"
           style="stroke:#0000ff" /><path
           class="st4"
           d="m 280.2,348.5 c 0,0 9.8,19.5 -4.2,13 -14,-6.5 -28,-26 -28,-26"
           id="path2205"
           style="stroke:#0000ff" /><path
           class="st4"
           d="m 248,323.5 c 0,0 11.5,37 -29.5,-16.5"
           id="path2207"
           style="stroke:#0000ff" /><path
           class="st4"
           d="m 223,295.2 c 0,0 0.5,26.2 -19.5,0 C 183.5,269 180.7,252 177.3,232.4 174,213 173.5,184 233.5,187 c 60,3 139.7,36.7 169.3,93.3"
           id="path2209"
           style="stroke:#0000ff" /><path
           class="st4"
           d="m 178.6,111.3 c 0,0 13.9,30.2 46.7,27.7 0,0 11.4,-1 18.6,7.8 7.2,8.8 12.2,14.5 25.8,15.2"
           id="path2211"
           style="stroke:#0000ff" /><path
           class="st4"
           d="M 318.1,494.4 C 306.6,490.4 293,484 293,484 180,426.5 181,250.9 181,250.9"
           id="path2213"
           style="stroke:#0000ff" /><path
           class="st4"
           d="m 389.7,461.4 c 0,0 -15.7,43.1 -22.7,57.1 -7,14 7.7,20.5 11.3,20 3.6,-0.5 17.3,-5.5 21.7,9 4.4,14.5 -21.4,7.5 -21.4,7.5 0,0 -20.1,-9.5 -39.6,-5 0,0 -11.5,4.7 -26.5,15.5 -15,10.8 -22.5,-2 -19.5,-6 3,-4 16.4,-14.5 25,-16.5 8.5,-2 -22.5,-2.5 -25,-1 -2.5,1.5 -20,-1.7 -14,-12.6 6,-10.9 35,4.1 41,0.6 6,-3.5 11,-4.5 9,-11 -2,-6.5 -13.8,-30 -15.6,-35 -1.8,-5 -10.4,-17 -13.4,-52.5"
           id="path2215"
           style="stroke:#0000ff" /><path
           class="st4"
           d="m 261.4,462.6 c 0,0 20.5,58.5 26.7,62.6"
           id="path2217"
           style="stroke:#0000ff" /><path
           class="st4"
           d="m 318.1,494.4 c 0,0 -3.9,22.4 -9,34.5"
           id="path2219"
           style="stroke:#0000ff" /><path
           class="st4"
           d="m 284,525.8 c 0,0 -37,-6.5 -38.7,-7.5 -1.7,-1 -14,-0.9 -12.7,6.9 1.3,7.8 16.3,7.5 19.3,7.8 3,0.3 14.4,-0.3 16,0 0,0 -17.9,6.7 -19.5,12 -1.6,5.3 -3,12 9.7,8.7 12.7,-3.3 18.3,-13.7 28.8,-11.9"
           id="path2221"
           style="stroke:#0000ff" /><path
           class="st5"
           d="m 393.3,550.3 c 4.5,-1.5 16.7,1.3 16.7,1.3 0,0 -5.7,-8.3 -16.3,-5.3 0,0 -4,5.2 -0.4,4 z"
           id="path2223"
           style="stroke:#0000ff" /><path
           class="st5"
           d="m 301.7,564.4 c -10.3,-0.7 -12,11.8 -12,11.8 0,0 0.4,-12.8 8.5,-14.9 8.1,-2.1 3.5,3.1 3.5,3.1 z"
           id="path2225"
           style="stroke:#0000ff" /><path
           class="st5"
           d="m 272.2,537.3 c 0,0 5.8,-8.8 12.5,-6.8 6.7,2 -1.3,5.1 -1.3,5.1 0,0 -6.2,-2.8 -11.2,1.7 z"
           id="path2227"
           style="stroke:#0000ff" /><path
           class="st6"
           d="m 255.8,550.1 c -10.5,-2.4 -17.2,11.8 -17.2,11.8 0,0 4.6,-14.2 13.3,-17.3 8.8,-3.1 3.9,5.5 3.9,5.5 z"
           id="path2229"
           style="stroke:#0000ff" /><path
           d="m 222.4,532.3 c 0,0 10.3,-16.6 18.3,-10 8,6.6 -9.6,-0.9 -18.3,10 z"
           id="path2231"
           style="stroke:#0000ff" /><path
           class="st4"
           d="m 361.6,109.9 c 0,0 -15.2,31.7 -47.9,29.2 0,0 -11.4,-1 -18.6,7.8 -7.2,8.8 -12.2,14.5 -25.8,15.2"
           id="path2233"
           style="stroke:#0000ff" /><path
           class="st4"
           d="m 324.5,508.3 c 0,0 7.7,12 13,14 0,0 4.8,-8.7 4.2,-14 0,0 5.5,11.2 9,15 0,0 7.5,-10.8 8.8,-16 0,0 1.8,15 3,16 0,0 6,-7.7 7.6,-11.5"
           id="path2235"
           style="stroke:#0000ff" /><path
           class="st4"
           d="m 278.7,507.9 c 0,0 4.9,6.3 10.4,10.3 0,0 1.8,-6.9 2.7,-10.2 0,0 4,7.8 7.2,11.1 0,0 4,-8.3 4.5,-11.6 0,0 3.7,10.2 5.2,11.8 0,0 6.3,-9.8 6.6,-11.1"
           id="path2237"
           style="stroke:#0000ff" /><g
           class="st0"
           id="g2241"
           style="stroke:#0000ff">
	<rect
   class="st3"
   x="-115"
   y="-107"
   width="1024"
   height="1176"
   id="rect2239"
   style="stroke:#0000ff" />
</g><g
           class="st0"
           id="g2317"
           style="stroke:#0000ff">
	<path
   class="st7"
   d="m 269.5,106 c 0,0 10.5,-25 46,-39.5 35.5,-14.5 34,-24 34,-24 0,0 -4.1,-13 -21,-15.5"
   id="path2243"
   style="stroke:#0000ff" />
	<path
   class="st7"
   d="M 269.5,92.5 C 270,91 257,77.5 234,60 211,42.5 210.5,26.5 210.5,26.5 c 0,0 53.9,-10.9 118,0.5 0,0 -0.5,16 -23.5,33.5 -23,17.5 -36,31 -35.5,32.5"
   id="path2245"
   style="stroke:#0000ff" />
	<path
   class="st7"
   d="m 210.5,26.5 c 0,0 -15.3,2.8 -21,15.8 0,0 -1.5,9.5 34,24 35.5,14.5 46,39.5 46,39.5"
   id="path2247"
   style="stroke:#0000ff" />
	<path
   class="st7"
   d="m 322.8,63.4 c 0,0 12.2,18.1 -5.1,27.4 -17.3,9.3 -23.4,-12.8 -21.1,-14.3"
   id="path2249"
   style="stroke:#0000ff" />
	<path
   class="st8"
   d="m 300.8,73.8 c 0,0 2.4,16.9 13.4,10.2 11,-6.7 1.2,-17.5 1.2,-17.5 z"
   id="path2251"
   style="stroke:#0000ff" />
	<path
   class="st7"
   d="m 217.6,63.8 c 0,0 -12.2,18.1 5.1,27.4 17.3,9.3 23.2,-12.6 20.9,-14.1"
   id="path2253"
   style="stroke:#0000ff" />
	<path
   class="st8"
   d="m 240.1,74.8 c 0,0 -2.9,16.4 -13.9,9.7 C 215.2,77.8 225,67 225,67 Z"
   id="path2255"
   style="stroke:#0000ff" />
	<polygon
   class="st9"
   points="271.7,89.6 269.2,92.6 267.4,89.3 269.5,93 "
   id="polygon2257"
   style="stroke:#0000ff" />
	<polygon
   class="st9"
   points="267.8,102.5 269.5,106 271.2,102.8 269.6,106.8 "
   id="polygon2259"
   style="stroke:#0000ff" />
	<path
   class="st7"
   d="m 269.6,132.5 c 0,0 -15.2,-17.1 -7.1,-37.5"
   id="path2261"
   style="stroke:#0000ff" />
	<path
   class="st7"
   d="m 269.5,132.5 c 0,0 15.2,-17.1 7.1,-37.5"
   id="path2263"
   style="stroke:#0000ff" />
	<polygon
   class="st7"
   points="269.6,132.5 269.9,132 269.3,132 "
   id="polygon2265"
   style="stroke:#0000ff" />
	<path
   class="st8"
   d="m 278.6,105.3 c 0,0 -0.7,0.3 -1.4,1 -0.8,0.8 -1.7,1.9 -1.3,3.4 0.7,2.7 2.9,0.3 2.8,-0.9 -0.2,-1.2 -2.3,-1.7 -2.3,-1.7"
   id="path2267"
   style="stroke:#0000ff" />
	<path
   class="st8"
   d="m 260.4,105.3 c 0,0 0.7,0.3 1.4,1 0.8,0.8 1.7,1.9 1.3,3.4 -0.7,2.7 -2.9,0.3 -2.8,-0.9 0.2,-1.2 2.3,-1.7 2.3,-1.7"
   id="path2269"
   style="stroke:#0000ff" />
	<path
   class="st7"
   d="m 201.2,55.8 c 0,0 -34.2,31 5.2,64.9 0,0 10,7.3 19.3,8.3 9.3,1 19.7,3 29.7,17.7 0,0 3,4.3 3.3,7 0,0 -19.2,-22.8 -35.5,-25"
   id="path2271"
   style="stroke:#0000ff" />
	<path
   class="st7"
   d="m 337.7,55.8 c 0,0 34.2,31 -5.2,64.9 0,0 -10,7.3 -19.3,8.3 -9.3,1 -19.7,3 -29.7,17.7 0,0 -3,4.3 -3.3,7 0,0 19.2,-22.8 35.5,-25"
   id="path2273"
   style="stroke:#0000ff" />
	<path
   class="st7"
   d="m 189.5,42.3 c 0,0 -19.6,66 -9.1,161"
   id="path2275"
   style="stroke:#0000ff" />
	<path
   class="st7"
   d="m 349.5,42.5 c 0,0 13.5,-1.5 12,82 -1.5,83.5 27.5,127 27.5,127 0,0 69,134 61,199 -8,65 -45.5,-72.5 -44.5,-100"
   id="path2277"
   style="stroke:#0000ff" />
	<path
   class="st7"
   d="m 450.6,443.5 c 0,0 25.4,72.5 6.9,83.5 -18.5,11 -80,-83.5 -80,-83.5 0,0 18.5,46 -16,1.5 C 327,400.5 318,389.5 318,389.5 c 0,0 -4.5,7 -25,-20.5"
   id="path2279"
   style="stroke:#0000ff" />
	<path
   class="st7"
   d="M 310.5,348.5 C 312,348 385,402 321,380 c 0,0 -36,-13 -38.5,-18.5"
   id="path2281"
   style="stroke:#0000ff" />
	<path
   class="st7"
   d="m 280.2,348.5 c 0,0 9.8,19.5 -4.2,13 -14,-6.5 -28,-26 -28,-26"
   id="path2283"
   style="stroke:#0000ff" />
	<path
   class="st7"
   d="m 248,323.5 c 0,0 11.5,37 -29.5,-16.5"
   id="path2285"
   style="stroke:#0000ff" />
	<path
   class="st7"
   d="m 223,295.2 c 0,0 0.5,26.2 -19.5,0 C 183.5,269 180.7,252 177.3,232.4 174,213 173.5,184 233.5,187 c 60,3 139.7,36.7 169.3,93.3"
   id="path2287"
   style="stroke:#0000ff" />
	<path
   class="st7"
   d="m 178.6,111.3 c 0,0 13.9,30.2 46.7,27.7 0,0 11.4,-1 18.6,7.8 7.2,8.8 12.2,14.5 25.8,15.2"
   id="path2289"
   style="stroke:#0000ff" />
	<path
   class="st7"
   d="M 318.1,494.4 C 306.6,490.4 293,484 293,484 180,426.5 181,250.9 181,250.9"
   id="path2291"
   style="stroke:#0000ff" />
	<path
   class="st7"
   d="m 389.7,461.4 c 0,0 -15.7,43.1 -22.7,57.1 -7,14 7.7,20.5 11.3,20 3.6,-0.5 17.3,-5.5 21.7,9 4.4,14.5 -21.4,7.5 -21.4,7.5 0,0 -20.1,-9.5 -39.6,-5 0,0 -11.5,4.7 -26.5,15.5 -15,10.8 -22.5,-2 -19.5,-6 3,-4 16.4,-14.5 25,-16.5 8.5,-2 -22.5,-2.5 -25,-1 -2.5,1.5 -20,-1.7 -14,-12.6 6,-10.9 35,4.1 41,0.6 6,-3.5 11,-4.5 9,-11 -2,-6.5 -13.8,-30 -15.6,-35 -1.8,-5 -10.4,-17 -13.4,-52.5"
   id="path2293"
   style="stroke:#0000ff" />
	<path
   class="st7"
   d="m 261.4,462.6 c 0,0 20.5,58.5 26.7,62.6"
   id="path2295"
   style="stroke:#0000ff" />
	<path
   class="st7"
   d="m 318.1,494.4 c 0,0 -3.9,22.4 -9,34.5"
   id="path2297"
   style="stroke:#0000ff" />
	<path
   class="st7"
   d="m 284,525.8 c 0,0 -37,-6.5 -38.7,-7.5 -1.7,-1 -14,-0.9 -12.7,6.9 1.3,7.8 16.3,7.5 19.3,7.8 3,0.3 14.4,-0.3 16,0 0,0 -17.9,6.7 -19.5,12 -1.6,5.3 -3,12 9.7,8.7 12.7,-3.3 18.3,-13.7 28.8,-11.9"
   id="path2299"
   style="stroke:#0000ff" />
	<path
   class="st8"
   d="m 393.3,550.3 c 4.5,-1.5 16.7,1.3 16.7,1.3 0,0 -5.7,-8.3 -16.3,-5.3 0,0 -4,5.2 -0.4,4 z"
   id="path2301"
   style="stroke:#0000ff" />
	<path
   class="st8"
   d="m 301.7,564.4 c -10.3,-0.7 -12,11.8 -12,11.8 0,0 0.4,-12.8 8.5,-14.9 8.1,-2.1 3.5,3.1 3.5,3.1 z"
   id="path2303"
   style="stroke:#0000ff" />
	<path
   class="st8"
   d="m 272.2,537.3 c 0,0 5.8,-8.8 12.5,-6.8 6.7,2 -1.3,5.1 -1.3,5.1 0,0 -6.2,-2.8 -11.2,1.7 z"
   id="path2305"
   style="stroke:#0000ff" />
	<path
   class="st8"
   d="m 255.8,550.1 c -10.5,-2.4 -17.2,11.8 -17.2,11.8 0,0 4.6,-14.2 13.3,-17.3 8.8,-3.1 3.9,5.5 3.9,5.5 z"
   id="path2307"
   style="stroke:#0000ff" />
	<path
   class="st8"
   d="m 222.4,532.3 c 0,0 10.3,-16.6 18.3,-10 8,6.6 -9.6,-0.9 -18.3,10 z"
   id="path2309"
   style="stroke:#0000ff" />
	<path
   class="st7"
   d="m 361.6,109.9 c 0,0 -15.2,31.7 -47.9,29.2 0,0 -11.4,-1 -18.6,7.8 -7.2,8.8 -12.2,14.5 -25.8,15.2"
   id="path2311"
   style="stroke:#0000ff" />
	<path
   class="st7"
   d="m 324.5,508.3 c 0,0 7.7,12 13,14 0,0 4.8,-8.7 4.2,-14 0,0 5.5,11.2 9,15 0,0 7.5,-10.8 8.8,-16 0,0 1.8,15 3,16 0,0 6,-7.7 7.6,-11.5"
   id="path2313"
   style="stroke:#0000ff" />
	<path
   class="st7"
   d="m 278.7,507.9 c 0,0 4.9,6.3 10.4,10.3 0,0 1.8,-6.9 2.7,-10.2 0,0 4,7.8 7.2,11.1 0,0 4,-8.3 4.5,-11.6 0,0 3.7,10.2 5.2,11.8 0,0 6.3,-9.8 6.6,-11.1"
   id="path2315"
   style="stroke:#0000ff" />
</g></g></g></g><style
     type="text/css"
     id="style2087">
	.st0{display:none;}
	.st1{display:inline;}
	.st2{display:inline;fill:none;stroke:#000000;stroke-miterlimit:10;}
	.st3{display:inline;stroke:#000000;stroke-miterlimit:10;}
	.st4{fill:none;stroke:#000000;stroke-width:4;stroke-miterlimit:10;}
	.st5{stroke:#000000;stroke-width:4;stroke-miterlimit:10;}
	.st6{stroke:#000000;stroke-miterlimit:10;}
	.st7{display:inline;fill:none;stroke:#FFFFFF;stroke-miterlimit:10;}
	.st8{display:inline;fill:#FFFFFF;stroke:#FFFFFF;stroke-miterlimit:10;}
	.st9{display:inline;stroke:#FFFFFF;stroke-miterlimit:10;}
</style></svg>
