<?xml version="1.0" encoding="UTF-8" standalone="no"?>
<svg
   version="1.0"
   viewBox="0 0 256 256"
   id="svg77"
   sodipodi:docname="rat-note.svg"
   inkscape:version="1.2.2 (b0a8486541, 2022-12-01)"
   width="256"
   height="256"
   inkscape:export-filename="rat-note.png"
   inkscape:export-xdpi="96"
   inkscape:export-ydpi="96"
   xmlns:inkscape="http://www.inkscape.org/namespaces/inkscape"
   xmlns:sodipodi="http://sodipodi.sourceforge.net/DTD/sodipodi-0.dtd"
   xmlns="http://www.w3.org/2000/svg"
   xmlns:svg="http://www.w3.org/2000/svg">
  <sodipodi:namedview
     id="namedview79"
     pagecolor="#ffffff"
     bordercolor="#000000"
     borderopacity="0.25"
     inkscape:showpageshadow="2"
     inkscape:pageopacity="0.0"
     inkscape:pagecheckerboard="0"
     inkscape:deskcolor="#d1d1d1"
     showgrid="false"
     inkscape:zoom="2.1932648"
     inkscape:cx="-17.78171"
     inkscape:cy="87.996669"
     inkscape:window-width="1920"
     inkscape:window-height="1011"
     inkscape:window-x="0"
     inkscape:window-y="0"
     inkscape:window-maximized="1"
     inkscape:current-layer="g3577" />
  <defs
     id="defs5">
    <clipPath
       clipPathUnits="userSpaceOnUse"
       id="a">
      <path
         d="M 1.2,0.08 H 666.316 V 248.25 H 1.2 Z"
         id="path2" />
    </clipPath>
  </defs>
  <g
     id="g3495">
    <g
       id="g3577"
       transform="matrix(2,0,0,2,19.99603,-2.84454)">
      <rect
         style="fill:none;stroke:#000000;stroke-width:2.05884;stroke-dasharray:none"
         id="rect507"
         width="72.941162"
         height="97.941154"
         x="16.031404"
         y="18.451691" />
      <g
         id="g453"
         transform="matrix(0.16407928,0,0,0.16407928,0.17053189,63.319045)">
        <path
           d="m 596.518,189.885 c -12.752,8.795 -18.748,27.183 -23.265,42.374"
           fill="none"
           stroke="#ffffff"
           stroke-width="1.67898px"
           stroke-linecap="round"
           stroke-linejoin="round"
           stroke-miterlimit="4"
           stroke-dasharray="none"
           stroke-opacity="1"
           id="path7" />
        <path
           clip-path="url(#a)"
           d="m 599.637,191.484 c -8.235,8.835 -17.95,39.256 -20.228,55.246"
           fill="none"
           stroke="#ffffff"
           stroke-width="1.67898px"
           stroke-linecap="round"
           stroke-linejoin="round"
           stroke-miterlimit="4"
           stroke-dasharray="none"
           stroke-opacity="1"
           id="path9" />
        <path
           d="m 601.795,197.16 c -5.956,10.434 -14.231,29.663 -14.231,45.653 m 29.182,-82.51 c 3.798,-11.993 26.424,-33.58 34.7,-35.978"
           fill="none"
           stroke="#ffffff"
           stroke-width="1.67898px"
           stroke-linecap="round"
           stroke-linejoin="round"
           stroke-miterlimit="4"
           stroke-dasharray="none"
           stroke-opacity="1"
           id="path11" />
        <path
           clip-path="url(#a)"
           d="m 618.265,162.062 c 6.037,-8.795 30.782,-32.02 46.532,-36.858"
           fill="none"
           stroke="#ffffff"
           stroke-width="1.67898px"
           stroke-linecap="round"
           stroke-linejoin="round"
           stroke-miterlimit="4"
           stroke-dasharray="none"
           stroke-opacity="1"
           id="path13" />
        <path
           d="m 619.784,165.98 c 7.516,-7.996 32.26,-19.189 39.736,-22.387 m -37.497,27.263 c 6.036,-4.797 24.065,-10.393 27.823,-11.193"
           fill="none"
           stroke="#ffffff"
           stroke-width="1.67898px"
           stroke-linecap="round"
           stroke-linejoin="round"
           stroke-miterlimit="4"
           stroke-dasharray="none"
           stroke-opacity="1"
           id="path15" />
        <path
           d="m 574.092,53.288 c 3.718,4.797 5.237,11.992 5.996,18.389 0.72,3.997 2.959,12.792 2.24,18.388 0.719,-2.398 2.238,-5.596 2.238,-7.995 0.72,-4.797 0,-7.995 -1.52,-11.992 -0.719,-3.199 -5.236,-14.392 -10.473,-18.39 l 1.52,1.6 z"
           fill="#d8d9da"
           fill-rule="evenodd"
           fill-opacity="1"
           stroke="none"
           id="path17" />
        <path
           d="m 382.808,187.606 c -3.758,0.8 -8.995,-1.599 -11.993,-1.599 -5.277,1.6 -8.275,6.396 -12.752,9.594 -0.76,-1.599 -2.998,-2.398 -2.998,-5.596 -5.997,4.797 -17.23,6.396 -18.749,-6.396 -4.477,2.398 -8.235,6.396 -12.752,1.599 -1.48,1.599 -4.477,2.398 -5.996,3.997 v -5.596 c -2.999,0.8 -6.716,3.198 -9.715,4.797 0.72,-3.198 2.24,-7.196 2.24,-11.193 -5.997,-1.6 -8.995,1.599 -13.513,5.596 0,-2.398 -1.479,-1.599 0,-8.794 -4.477,2.398 -5.237,2.398 -8.235,5.596 2.239,-2.398 0,-5.596 0,-9.594 -2.238,0 -5.237,0.8 -6.756,0.8 0.76,-0.8 0.76,-1.6 1.52,-2.4 -0.76,-0.799 -2.28,-2.398 -2.999,-3.197 l -0.76,-10.394 c 0,0 -4.517,3.998 7.516,-49.61 11.233,-53.647 66.68,-93.623 116.17,-100.02 8.994,-0.799 17.23,-1.598 24.745,-0.799 2.998,0 5.237,-0.8 5.237,-3.238 2.238,2.439 5.236,3.238 8.235,3.238 V 1.96 c 1.519,3.238 5.996,4.037 8.994,2.438 2.279,2.399 6.756,3.998 9.754,1.6 2.279,3.997 9.754,6.395 11.993,2.398 1.519,3.198 3.758,3.997 6.756,4.797 4.517,1.599 3.758,1.599 7.515,4.797 2.239,3.198 5.237,5.597 8.235,7.995 0.76,-0.8 1.48,-2.398 1.48,-3.198 0.759,3.198 2.278,4.797 5.276,6.396 1.48,0.8 5.237,3.198 7.476,3.198 -0.76,3.198 6.756,7.196 8.994,8.795 a 878.47,878.47 0 0 1 5.997,6.396 c 1.519,1.6 4.517,5.637 6.756,5.637 0,-0.84 1.479,-0.84 1.479,-1.64 1.519,3.239 2.998,6.437 5.996,8.835 0.76,0 2.279,0 2.998,0.8 0.76,0.8 0.76,1.599 1.52,2.398 1.478,1.6 2.997,3.998 5.996,1.6 0.76,3.198 4.517,6.396 7.515,7.195 0,0 3.718,3.998 5.237,2.399 0,-3.198 2.239,-6.396 2.998,-9.595 0.76,-4.797 0,-9.594 2.239,-13.631 1.519,-3.998 4.517,-1.6 7.515,1.639 3.718,4.797 5.237,11.992 5.996,18.389 0.72,4.797 4.478,17.589 0.72,21.587 4.517,6.396 8.995,13.631 10.514,19.228 1.479,3.198 5.996,11.193 7.475,13.592 4.517,6.396 8.275,14.39 9.754,15.99 1.52,1.599 2.239,3.998 3.758,7.196 2.998,5.636 5.996,12.832 8.235,18.428 1.52,4.798 5.237,9.595 5.237,14.392 -0.72,7.195 -2.998,7.995 -8.235,11.992 -4.477,3.198 -6.756,6.397 -12.752,6.397 -6.716,0 -14.232,-2.399 -20.228,-4.798 -10.474,-5.596 -26.224,-11.992 -38.977,-13.591 -5.996,-0.8 -8.235,-0.8 -12.752,2.398 -1.479,2.399 -4.477,7.196 -1.479,7.995 -2.279,0 -5.277,0 -6.756,-2.398 -1.519,0 -0.76,2.398 -2.239,3.198 -0.76,0 -2.278,-0.8 -2.998,-0.8 h -4.517 c -2.998,-0.8 -6.756,3.998 -5.996,-2.398 -2.999,1.599 -6.756,3.198 -8.995,5.596 0.76,-0.8 1.52,-2.398 2.239,-3.997 -2.998,-3.198 -15.71,-0.8 -19.468,2.398 0.76,-0.8 0.76,-2.398 1.479,-3.997 -1.48,1.599 -3.718,2.398 -5.997,3.198 -1.479,-3.998 -19.468,-4.797 -22.466,-3.198 v -5.597 c -2.279,0.8 -3.758,2.399 -5.996,3.198 0,-0.8 0,-3.198 0.72,-4.797 -2.24,0 -5.238,0.8 -7.476,0.8 2.238,-0.8 3.757,-3.198 3.757,-5.597 0,0 -5.996,-2.398 -4.517,2.399 -1.479,-0.8 -1.479,-0.8 -2.998,-2.399 -2.239,-1.599 -3.758,-3.997 -4.477,-5.596 2.998,4.797 0,7.195 -4.518,10.393 -5.236,3.198 -5.996,3.198 -11.233,3.198 -2.998,0 -2.998,0.8 -5.237,2.399 -0.76,0.8 -0.76,2.398 -2.278,2.398 -2.239,0 -2.998,-3.198 -5.237,-2.398 -2.239,0 -4.477,2.398 -5.996,3.997 -0.76,-4.797 -5.237,-7.195 -7.476,-1.599 1.48,-6.396 -5.996,-2.398 -7.515,0.8 0,-1.6 -0.76,-2.399 -2.239,-3.198 z"
           fill="#f5f5f6"
           fill-rule="evenodd"
           fill-opacity="1"
           stroke="none"
           id="path19" />
        <path
           d="m 282.509,143.393 c 0.76,-21.587 6.756,-47.171 23.226,-73.555 16.47,-27.184 53.207,-48.77 65.2,-51.969 -12.752,7.196 -26.224,16.79 -38.217,28.783 -2.278,3.198 -3.757,6.396 -3.757,9.594 -2.239,-0.8 -3.758,1.599 -5.237,3.997 l 0.76,0.8 -2.999,0.8 c -0.76,1.599 -1.519,3.198 -2.278,3.997 0,0 0,2.399 -0.72,3.198 -0.76,0.8 -2.998,1.6 -3.758,3.198 -0.76,1.6 0,3.198 -0.76,4.797 0,0 -0.759,2.399 -1.478,2.399 -0.76,3.997 -2.279,4.797 0,9.594 -5.997,3.198 -14.232,32.78 -2.999,31.98 -3.757,1.6 -6.755,7.196 -2.278,9.595 -4.477,2.398 -2.998,7.195 -2.239,11.193 0,0.8 0,0.8 0.76,1.6 1.479,6.395 4.477,11.192 7.475,12.791 0.76,0 1.52,-0.8 2.279,-1.599 -0.76,3.198 0.72,7.995 2.998,8.795 2.998,1.599 5.996,-3.198 8.995,-3.998 0.72,3.198 2.238,7.196 5.956,7.996 3.758,0.8 5.277,-2.399 8.275,-2.399 0.72,1.599 1.479,3.998 2.239,5.597 3.757,0 8.235,-2.399 11.233,-4.797 11.233,19.987 39.696,0 53.207,-7.196 5.997,-3.998 9.715,-8.795 11.234,-16.79 2.238,-5.597 3.757,-7.995 7.475,-11.993 2.239,-3.198 3.758,-7.995 4.517,-11.193 v 15.99 c -0.76,8.795 -2.998,16.79 -1.519,26.384 0,3.198 2.239,11.194 1.52,14.392 -2.28,9.594 -22.507,3.198 -22.507,11.193 -2.998,-1.6 -4.477,-2.399 -6.716,0.8 -1.519,-3.199 -6.756,-4.798 -8.994,-2.4 -2.24,-0.799 -3.758,0 -5.237,0 -2.998,0 -5.997,-1.598 -8.995,-2.398 -5.237,-0.8 -14.99,-1.599 -17.23,5.597 -2.998,-3.998 -6.755,-1.6 -11.233,0 -2.278,0.8 -3.757,0.8 -6.755,0 -0.76,-0.8 -2.999,-7.995 -2.999,-8.795 -2.238,-1.599 -4.517,0 -6.756,1.6 -0.76,0 -2.238,1.598 -2.998,1.598 -1.479,0 -1.479,-0.8 -2.238,-1.599 -2.999,-0.8 -4.478,0.8 -8.235,1.6 0.76,-4.798 -2.999,-4.798 -5.997,-2.4 -0.76,-7.994 -5.237,-7.994 -10.513,-5.596 -0.72,-3.997 -8.235,-8.794 -11.234,-3.997 -0.72,-3.198 -2.238,-5.597 -5.236,-3.998 0,-3.998 -2.239,-4.797 -4.478,-7.196 -0.76,-2.398 -2.278,-5.596 -2.278,-8.794 0,-2.399 0.76,-4.797 1.519,-7.196 z"
           fill="#ececed"
           fill-rule="evenodd"
           fill-opacity="1"
           stroke="none"
           id="path21" />
        <path
           d="m 578.49,150.829 c -2.2,-12.793 -11.873,-13.592 -14.112,-6.397 -0.76,6.397 2.958,12.793 14.111,6.397 z"
           fill="#d3d4d5"
           fill-rule="evenodd"
           fill-opacity="1"
           stroke="none"
           id="path23" />
        <path
           d="m 565.018,147.47 c -0.76,-3.197 1.519,-6.395 5.236,-6.395 2.999,-0.8 5.997,1.599 5.997,5.596 0.72,3.198 -1.52,6.396 -4.478,6.396 -3.757,0.8 -6.755,-1.599 -6.755,-5.596 z"
           fill="#5c5d5f"
           fill-rule="evenodd"
           fill-opacity="1"
           stroke="none"
           id="path25" />
        <path
           d="m 570.414,145.992 c 0,-0.8 0.76,-1.6 1.48,-2.439 1.478,0 2.198,0.84 2.198,2.439 0.72,0.839 -0.72,2.438 -1.479,2.438 -1.44,0 -2.199,-0.8 -2.199,-2.438 z"
           fill="#ffffff"
           fill-rule="evenodd"
           fill-opacity="1"
           stroke="none"
           id="path27" />
        <path
           clip-path="url(#a)"
           d="m 280.11,165.14 -0.72,-10.394 c 0,0 -0.759,0.8 -0.759,-4.797 -29.982,-4.797 -47.251,4.797 -63.721,15.19 -15.75,9.595 -30.782,20.788 -63.002,19.989 -33.02,-0.8 -54.007,-8.795 -72.756,-15.99 -20.228,-7.996 -36.738,-13.592 -61.483,-6.397 -5.996,0.8 -9.754,3.198 -12.752,4.797 -3.758,1.6 -2.998,2.399 0.76,2.399 1.519,-0.8 3.757,-0.8 5.996,-1.599 2.998,-0.8 17.989,-3.998 29.262,-3.198 11.993,1.599 23.226,5.597 35.219,10.394 17.989,7.195 40.495,19.988 75.754,20.787 34.499,0.8 53.248,-11.193 68.998,-21.587 16.47,-9.594 31.461,-15.19 59.204,-9.594 z"
           fill="#e5d6c6"
           fill-rule="evenodd"
           fill-opacity="1"
           stroke="none"
           id="path29" />
        <path
           d="m 414.349,187.606 c 0,0 -0.76,0 -0.76,0.8 -0.76,0.8 -0.76,2.398 -2.238,2.398 -2.239,0 -2.998,-3.198 -5.237,-2.398 -2.239,0 -4.517,2.398 -5.996,3.957 -0.76,-4.757 -5.237,-7.155 -7.476,-1.559 1.48,-6.396 -5.996,-2.398 -7.515,0.8 0,-1.6 -0.76,-2.399 -2.24,-3.198 v -0.8 c -3.757,0.8 -8.994,-1.599 -11.992,-1.599 -3.718,0.8 -5.996,3.198 -8.994,5.597 1.519,4.757 0,6.356 5.996,7.156 5.237,0.76 9.754,-0.8 14.99,-1.6 6.757,-0.799 17.99,0 25.466,0 3.757,0 12.712,-0.799 15.71,2.36 -0.72,-3.959 -3.718,-4.758 -6.716,-6.357 2.998,0 8.235,-2.359 10.474,0.8 1.479,-8.755 -7.476,-5.557 -13.472,-6.357 z m 63.761,5.517 c 2.279,-0.8 4.517,-1.6 5.997,-3.198 -0.72,1.599 -0.72,3.198 -1.48,3.997 3.758,-3.198 16.51,-5.596 19.509,-2.398 -0.76,1.599 -1.52,3.198 -2.239,3.998 2.239,-2.399 5.996,-3.998 8.995,-5.597 -0.76,6.396 2.998,2.398 5.236,2.398 2.999,1.6 5.277,3.998 5.997,7.196 -5.237,-5.597 -17.23,0 -24.745,-0.8 -2.239,0 -4.517,-1.598 -7.516,-1.598 -2.998,0 -7.475,1.599 -9.754,-1.6 -0.76,-0.799 -0.76,-2.398 -0.76,-3.997 0,0.8 0.76,0.8 0.76,1.599 z"
           fill="#e5d6c6"
           fill-rule="evenodd"
           fill-opacity="1"
           stroke="none"
           id="path31" />
        <path
           d="m 605.593,177.852 c 1.519,1.6 2.239,1.6 3.758,3.198 0.76,0.8 1.479,1.6 2.238,2.399 1.52,1.599 2.999,3.997 4.518,5.596 1.479,3.998 -1.52,3.998 -4.518,5.597 -0.76,0.8 -2.238,1.6 -3.757,1.6 -1.48,0 -3.758,-0.8 -5.997,-0.8 -7.515,0 -13.512,-2.399 -20.267,-5.597 -5.237,-2.399 -11.274,-3.998 -16.51,-6.396 -2.999,-0.8 -5.237,-1.6 -8.275,-1.6 -2.24,-0.799 -5.237,-0.799 -6.756,-1.598 3.038,-0.8 6.036,0 9.034,0 4.477,0.8 8.995,1.599 12.752,2.398 5.237,0.8 12.753,7.196 18.03,3.198 4.477,-2.398 9.754,-11.992 15.75,-7.995 z"
           fill="#d8d9da"
           fill-rule="evenodd"
           fill-opacity="1"
           stroke="none"
           id="path33" />
        <path
           d="m 429.3,80.391 c 19.508,15.99 18.748,59.924 18.748,59.924 0,3.998 -0.76,7.995 0.76,11.193 2.239,4.797 9.754,8.795 11.233,1.6 2.279,3.997 6.756,10.393 10.514,5.596 -0.76,-0.8 0.76,4.797 5.277,5.596 3.717,0 5.236,-5.596 5.236,-5.596 0,0 2.999,5.596 5.237,4.797 1.52,-0.8 2.998,-4.797 4.518,-6.396 h -0.76 1.52 v -0.8 h 0.759 c 2.238,-2.398 0.72,-8.794 0,-11.193 0.72,0 2.238,0 2.998,-0.8 0.72,-0.799 1.479,-2.398 2.238,-3.198 0.76,-2.398 2.999,-3.997 0.76,-5.596 2.239,-0.8 5.237,-0.8 7.475,-1.6 2.28,-0.799 6.756,-1.598 7.516,-3.997 h 0.76 c -1.52,3.198 -2.999,4.797 -5.277,7.196 -2.239,1.599 -5.237,3.198 -7.476,5.597 -1.519,1.599 -1.519,2.398 0.72,3.198 3.038,0 6.036,0 9.034,0.8 0,2.398 -3.757,3.997 -4.517,6.395 0.76,-0.8 1.52,0 2.998,0 0.76,1.6 -0.76,2.399 -0.76,3.198 1.52,1.6 3.758,0.8 2.999,2.399 0,1.599 -0.72,1.599 0,2.398 0,0.8 1.519,1.6 2.278,1.6 -1.519,1.598 -0.76,3.197 0,4.796 h 0.76 c 0.72,0.8 2.239,1.6 2.998,1.6 0.72,1.599 -1.519,3.198 0,4.797 0.72,0.8 2.998,0.8 4.477,0 1.52,0 3.758,0 5.277,0.8 -0.76,1.598 0.72,7.195 2.998,6.395 h 0.72 c -1.48,2.399 -2.998,5.597 -2.998,8.755 -1.48,-1.56 -2.239,-3.158 -4.477,-2.359 -1.52,0.8 -1.52,3.158 -2.999,3.158 -0.76,0 -2.998,-0.8 -3.757,0 -2.239,0 -4.518,0 -5.997,0.8 1.48,-1.6 1.48,-5.557 -0.76,-5.557 -2.238,0 -4.517,2.399 -5.996,3.198 2.239,-5.596 -15.75,0 -18.029,0 h 0.76 c -2.239,-3.198 -3.758,-3.198 -6.756,-2.398 -2.239,0.8 -3.758,1.599 -6.756,1.599 -5.237,-0.8 -9.754,-3.198 -14.99,-2.399 2.238,-3.198 -3.759,-4.797 -5.238,-2.398 0,-3.998 -2.278,-3.998 -4.517,-2.399 2.998,-1.599 -0.76,-5.596 -2.239,-6.396 -1.519,-0.8 -4.517,-0.8 -6.036,0.8 -2.998,-0.8 -5.237,-6.396 -5.996,-8.795 -0.72,-1.6 -0.72,-3.198 -0.72,-4.797 -2.279,-5.597 0,-13.592 0,-28.783 0.72,-18.349 -0.76,-29.542 -8.275,-45.532 C 417.307,72.397 392.522,66.8 379.01,68.399 390.283,64.4 409.792,64.4 429.3,80.39 Z m 80.391,0.879 c 2.998,-4.796 8.275,-1.598 8.995,-0.799 6.756,3.998 14.231,6.396 17.989,15.191 2.238,6.396 -1.52,15.95 3.757,19.948 0.72,0.8 2.24,1.599 2.959,3.198 -2.959,-0.8 -4.478,1.599 -2.959,3.998 -2.998,-1.6 -0.76,6.356 -4.517,7.155 -2.998,0 -6.716,-3.158 -7.475,-5.556 0,1.599 0,2.398 0.76,2.398 -2.999,0 -5.997,2.359 -8.995,0 v 0.8 c -15.75,-6.396 -21.747,-33.54 -10.514,-46.332 z"
           fill="#ececed"
           fill-rule="evenodd"
           fill-opacity="1"
           stroke="none"
           id="path35" />
        <path
           d="m 582.247,151.468 c -3.718,-11.993 -8.195,-17.59 -18.629,-12.792 4.478,-4.797 17.15,-7.196 18.63,12.792 z"
           fill="#d0d1d3"
           fill-rule="evenodd"
           fill-opacity="1"
           stroke="none"
           id="path37" />
        <path
           d="m 571.054,155.626 c -5.996,1.599 -9.035,-4.797 -9.035,-9.595 -1.519,5.597 0,11.194 9.035,9.595 z"
           fill="#ffffff"
           fill-rule="evenodd"
           fill-opacity="1"
           stroke="none"
           id="path39" />
        <path
           d="m 517.806,85.228 c 4.517,0.8 5.277,3.998 9.035,7.196 2.998,2.399 5.996,3.998 4.517,7.995 -1.52,2.399 -3.758,5.637 -1.52,8.035 0,0.8 2.28,1.6 2.28,2.399 0.72,1.599 -1.52,3.198 -2.28,3.997 3,1.6 1.52,2.399 -0.759,4.797 -1.479,1.6 -2.238,3.998 -0.72,6.397 -1.518,-1.6 -3.037,-2.399 -5.276,-3.198 3.758,-3.199 4.517,-8.795 -1.52,-7.996 2.28,-2.398 -1.478,-7.995 -2.997,-7.195 3.757,-0.8 0.76,-10.434 -2.239,-12.033 -3.758,-0.8 -4.517,3.998 -5.277,7.196 -0.76,-3.998 -2.278,-8.795 0,-12.793 0.76,-2.398 2.998,-7.235 5.997,-4.797 z"
           fill="#d8d9da"
           fill-rule="evenodd"
           fill-opacity="1"
           stroke="none"
           id="path41" />
        <path
           d="m 571.853,54.807 c -4.557,-5.597 -3.797,4.797 -4.557,7.995 0,4.757 -2.278,10.354 -4.557,14.351 2.279,0 3.798,3.198 4.557,4.757 0.76,-3.158 -3.038,-11.153 2.279,-8.754 0,-0.8 -0.76,-2.399 -0.76,-3.198 0,-2.399 1.52,-3.998 2.279,-6.357 0.76,-3.198 -1.52,-5.596 1.479,-7.995 z"
           fill="#ececed"
           fill-rule="evenodd"
           fill-opacity="1"
           stroke="none"
           id="path43" />
        <path
           d="m 622.143,179.531 c 0.72,-3.997 -3.038,-7.195 -5.277,-11.993 -2.278,-5.596 -4.557,-12.792 -6.796,-17.589 -2.278,-4.837 -6.036,-9.634 -10.553,-17.63 -4.518,-7.195 -8.315,-13.591 -9.834,-16.829 0,4.038 6.036,15.23 8.315,21.627 2.998,6.396 9.034,12.832 11.313,19.228 2.998,7.196 5.277,10.394 7.555,14.392 2.239,3.198 5.277,5.596 5.277,8.794 z"
           fill="#ffffff"
           fill-rule="evenodd"
           fill-opacity="1"
           stroke="none"
           id="path45" />
        <path
           d="m 421.864,81.91 c 0.76,0.8 2.279,1.6 3.038,1.6 5.997,3.997 10.474,15.19 12.753,21.586 4.477,11.993 4.477,27.983 4.477,40.776 0,4.797 -0.72,11.193 2.279,15.19 1.479,3.198 8.994,9.595 11.233,3.998 -0.72,2.399 0,7.196 2.278,7.995 0.76,3.198 2.999,3.198 3.758,3.998 0.72,0 2.998,2.398 3.758,2.398 4.477,2.399 9.754,-3.198 12.752,-0.8 1.48,0.8 0.76,3.199 2.998,4.798 h 4.518 c 3.717,0 7.475,0.8 11.233,-0.8 2.998,-0.8 4.517,-2.398 6.756,-2.398 5.277,-0.8 9.754,-0.8 11.273,4.797 0.76,2.398 0.76,3.997 1.479,5.596 -1.48,0 -3.718,0 -5.237,0.8 1.52,-1.6 1.52,-5.597 -0.76,-5.597 -1.478,0 -4.477,2.399 -5.996,3.198 l 1.52,-1.599 c -1.52,-1.599 -3.039,-2.398 -5.277,-1.599 -0.76,0 -1.48,0.8 -1.48,0.8 -1.519,0 -3.038,0.8 -5.276,0.8 -2.999,-0.8 -4.518,-0.8 -6.756,-0.8 h -3.758 c 0,0 -0.76,-0.8 -1.48,-0.8 -2.278,0 -7.515,0.8 -12.032,1.6 -3.758,-0.8 -6.756,-2.4 -10.513,-1.6 h -0.72 c 0.72,-1.599 0,-3.198 -1.52,-3.198 v -0.8 c -0.759,0 -2.238,0 -2.997,0.8 0,0 -0.76,0 -0.76,-0.8 -0.76,-0.799 -0.76,-1.598 -2.238,-1.598 v -1.6 c -0.76,-0.799 -1.52,-1.598 -2.279,-1.598 -0.72,-1.6 -1.48,-2.399 -2.239,-2.399 -1.479,-0.8 -4.517,-0.8 -5.996,0.8 h -0.76 c -2.998,-3.198 -5.236,-8.795 -5.996,-12.793 v -0.8 c -0.76,0 -0.76,-0.799 -0.76,-0.799 v -2.398 c -0.76,-5.597 0.76,-12.792 0.76,-25.585 0.76,-18.389 -0.76,-29.582 -8.275,-45.572 -1.48,-1.6 -2.239,-3.998 -3.758,-5.597 z m -128.282,87.947 c 0,0.8 -0.76,1.6 0,-1.599 2.998,0.8 6.756,-1.599 9.754,0 2.998,1.6 7.516,5.597 10.514,1.6 0.76,3.997 4.477,3.997 6.756,1.598 0.72,4.797 5.237,5.597 8.994,2.399 1.48,5.556 5.997,0.8 9.754,0.8 5.237,-0.8 4.478,3.157 7.476,5.556 0,0.8 0.76,2.398 1.519,2.398 1.479,0 2.239,-2.398 2.239,-2.398 2.238,0 2.238,1.599 4.517,1.599 0.72,0.8 5.237,-1.6 6.716,-2.399 1.519,0 2.278,0.8 3.757,-1.599 5.997,6.396 15.75,2.399 21.747,-1.559 1.52,1.56 5.277,6.356 6.756,3.158 1.52,1.6 4.517,3.198 5.997,0 3.757,1.6 4.517,0.8 8.235,0 0.76,-0.8 1.519,-1.599 2.278,-1.599 0.76,0 0.76,1.6 2.239,0.8 1.519,-0.8 2.998,-3.158 5.237,-3.158 0,0 2.278,0.8 2.998,0.8 1.519,0 4.517,-1.6 4.517,-3.199 h 1.48 v 7.156 c -6.717,2.398 -17.99,0 -17.99,6.396 -2.998,-1.6 -4.477,-2.399 -6.756,0.8 -1.479,-3.199 -6.716,-4.798 -8.994,-2.4 -2.239,-0.799 -3.758,0 -5.237,0 -2.998,0 -5.997,-1.598 -8.995,-2.398 -5.237,-0.8 -14.99,-1.599 -17.27,5.597 -2.997,-3.998 -6.715,-1.6 -11.232,0 -2.24,0.76 -3.758,0.76 -6.756,0 -0.76,-0.8 -2.999,-7.995 -2.999,-8.795 -2.238,-1.599 -4.477,0 -6.755,1.6 -0.76,0 -2.24,1.598 -2.999,1.598 -1.479,0 -1.479,-0.8 -2.238,-1.599 -2.998,-0.8 -4.518,0.8 -8.235,1.6 0.72,-4.798 -2.998,-4.798 -5.997,-2.4 -0.76,-7.954 -5.276,-7.954 -10.513,-5.556 -0.76,-3.997 -6.756,-7.995 -10.514,-4.797 z"
           fill="#d8d9da"
           fill-rule="evenodd"
           fill-opacity="1"
           stroke="none"
           id="path47" />
        <path
           d="m 429.34,112.452 c 1.479,-14.391 -7.516,-25.625 -17.99,-33.62 -10.513,-7.195 -33.779,-14.431 -43.533,-1.599 1.52,-1.599 4.517,-3.198 6.756,-3.198 0,1.6 0.76,3.198 0.76,4.797 0,-0.8 0.76,-4.797 2.238,-4.797 2.279,0 2.998,5.597 3.758,7.196 0.76,-3.198 7.515,-8.795 8.275,-2.399 1.479,-1.599 4.477,-1.599 6.716,-1.599 5.277,0.8 6.036,2.399 7.515,7.196 1.52,-3.198 5.237,-3.998 6.756,0 2.998,-2.399 3.758,2.398 2.998,4.837 2.239,-1.64 7.516,-1.64 5.997,2.398 2.998,0 2.238,3.199 1.519,5.597 0.72,-0.8 2.238,-0.8 3.718,-0.8 0,0 0,0.8 0.76,1.6 0.759,0.8 0,-0.8 0,-0.8 z m 73.515,-27.264 c -2.958,4.797 -3.718,11.993 -2.958,18.35 0.72,5.596 3.718,17.589 8.155,20.747 -2.199,-3.158 -5.916,-6.356 -9.634,-3.158 7.435,-3.198 -1.52,-6.397 -2.239,-9.595 -0.76,-1.599 1.48,-3.997 1.48,-6.396 0,-3.198 -2.24,-5.556 -4.478,-7.955 3.718,0 5.237,-9.594 5.237,-12.792 4.437,0 7.435,-2.399 9.634,-6.396 z M 576.33,70.677 c 1.52,3.238 2.28,7.236 3.039,10.474 0.72,5.636 -2.279,6.436 -3.798,10.433 3.038,-3.198 3.038,-7.235 -0.76,-8.834 3.039,-2.399 0.76,-4.837 0.76,-7.236 0,-2.438 1.52,-5.636 0,-8.075 z m -59.963,66.56 c -2.239,3.198 -5.956,5.596 -8.955,6.396 4.478,-0.8 11.194,-0.8 5.957,5.557 0.76,-0.8 1.519,-0.8 2.239,-0.8 0,1.6 -1.48,3.198 -2.959,4.757 4.438,-3.957 5.957,2.399 2.239,5.597 9.634,-5.597 0.72,10.314 6.676,7.155 -1.48,-4.797 -1.48,-10.353 1.479,-15.11 -3.718,-2.399 -6.676,-7.156 -5.956,-11.953 z m 2.878,-89.786 c -3.717,-3.957 -6.716,-6.356 -11.233,-9.554 -2.998,-2.359 -5.237,-5.557 -8.954,-7.955 -3.758,-2.359 -5.997,0.8 -10.514,-2.359 -2.998,-2.398 -7.476,-6.396 -8.235,-10.353 -2.998,4.757 -8.995,-1.6 -11.233,-3.998 -2.239,3.198 -10.474,-1.599 -14.232,-2.399 -2.998,0 -8.235,-0.8 -10.473,-2.398 -1.52,0.8 -2.998,2.398 -4.518,2.398 2.999,-2.398 9.755,2.399 11.993,5.597 2.998,-3.998 8.995,0 12.752,1.56 1.48,0.799 3.718,0.799 5.237,1.598 2.998,1.6 4.478,3.998 6.756,5.597 4.477,3.158 11.953,4.757 14.232,11.153 2.238,-3.998 2.958,-3.198 6.715,-1.6 2.24,1.6 3.758,1.6 6.756,2.4 z"
           fill="#ffffff"
           fill-rule="evenodd"
           fill-opacity="1"
           stroke="none"
           id="path49" />
        <path
           d="m 395,193.922 c -6.036,0 -12.792,-0.799 -18.068,0.8 -2.999,0.8 -5.237,2.399 -8.275,1.599 -1.48,-0.8 -4.518,-2.399 -3.758,-4.797 0.76,-5.597 12.033,-4.797 15.03,-3.198 1.52,0.8 3.039,3.198 3.758,3.997 2.28,0.8 4.518,-2.398 6.796,-3.198 0,1.6 -0.76,1.6 0,3.198 l 2.999,1.6 c 2.238,-0.8 2.238,-4.798 4.517,-3.998 0,1.599 0.76,3.198 1.479,4.797 -3.758,0 -7.516,-0.8 -10.514,-1.599 z m 104.098,-1.679 c -1.48,2.439 -2.24,4.878 -4.518,4.078 -2.238,0 -3.757,-0.8 -5.996,-1.639 -1.52,0 -3.038,0.84 -3.798,0 3.038,-5.717 9.075,-0.8 13.592,-3.238 z M 248.69,158.584 c -8.995,0 -20.268,4.797 -33.02,13.592 -13.473,9.594 -14.232,11.992 -27.744,16.79 12.752,-3.199 26.264,-12.793 44.253,-22.387 17.99,-9.594 40.496,-4.797 44.213,-4.797 2.999,0 0.76,-4.797 0.76,-8.795 -0.76,3.998 -17.23,4.797 -28.463,5.597 z"
           fill="#dac3ac"
           fill-rule="evenodd"
           fill-opacity="1"
           stroke="none"
           id="path51" />
        <path
           d="m 181.13,185.108 c -8.994,4.857 -50.29,10.493 -78.832,-4.857 9.015,2.438 37.557,12.932 78.832,4.857 z"
           fill="#ffffff"
           fill-rule="evenodd"
           fill-opacity="1"
           stroke="none"
           id="path53" />
        <path
           d="m 520.205,127.603 c -15.71,-6.356 -21.707,-33.5 -10.474,-46.292 2.998,-4.797 8.235,-1.6 8.995,-0.8 6.716,3.998 14.191,6.396 17.949,15.191 2.238,6.356 -1.52,15.95 3.717,19.948 m 38.138,35.219 c -2.2,-12.793 -11.873,-13.592 -14.112,-6.397 -0.76,6.397 2.958,12.793 14.111,6.397 m 33.82,34.219 c 2.958,0 2.199,3.997 4.397,5.596 -2.198,0.8 -4.397,0 -3.638,-2.398"
           fill="none"
           stroke="#1a171b"
           stroke-width="1.19927px"
           stroke-linecap="round"
           stroke-linejoin="round"
           stroke-miterlimit="4"
           stroke-dasharray="none"
           stroke-opacity="1"
           id="path55" />
        <path
           d="m 565.058,147.51 c -0.76,-3.197 1.519,-6.396 5.236,-6.396 2.999,-0.799 5.997,1.6 5.997,5.597 0.72,3.198 -1.52,6.396 -4.478,6.396 -3.757,0.8 -6.755,-1.599 -6.755,-5.596"
           fill="none"
           stroke="#1a171b"
           stroke-width="1.19927px"
           stroke-linecap="round"
           stroke-linejoin="round"
           stroke-miterlimit="4"
           stroke-dasharray="none"
           stroke-opacity="1"
           id="path57" />
        <path
           d="m 517.726,85.188 c 3.798,3.198 14.391,7.996 14.391,13.592 0,3.198 -3.797,4.797 -3.038,7.955 0,3.198 2.279,3.198 3.758,5.597 -0.72,1.599 -2.239,2.398 -2.998,3.198 0.76,0 1.519,0.8 2.278,0.8 -1.519,4.797 -9.074,5.596 -2.278,10.353"
           fill="none"
           stroke="#1a171b"
           stroke-width="0.479709px"
           stroke-linecap="round"
           stroke-linejoin="round"
           stroke-miterlimit="4"
           stroke-dasharray="none"
           stroke-opacity="1"
           id="path59" />
        <path
           d="m 511.09,134.878 c -2.278,4.797 -7.515,6.396 -9.794,11.154 2.279,0.799 6.756,-1.56 8.275,0 2.998,3.198 -2.998,5.596 -4.517,7.195 1.519,0 2.998,0 5.277,0.8 -0.76,0.8 -1.52,2.358 -2.279,3.158 4.517,0.8 5.277,0.8 2.279,4.797 1.479,0 2.238,0 3.757,0.8 0,0.799 -1.519,3.157 -0.76,3.957 0.76,1.599 3.759,0.8 3.759,2.398 1.479,2.399 -2.279,3.199 1.479,5.597 2.278,0.8 6.036,-0.8 9.034,0 0.72,0.8 0,0.8 0,1.56 M 373.853,69.198 c 15.031,-5.637 36.818,0.8 48.051,13.592 17.27,18.429 11.273,52.848 11.273,76.873 0,3.198 0,9.594 1.52,13.592"
           fill="none"
           stroke="#1a171b"
           stroke-width="1.19927px"
           stroke-linecap="round"
           stroke-linejoin="round"
           stroke-miterlimit="4"
           stroke-dasharray="none"
           stroke-opacity="1"
           id="path61" />
        <path
           clip-path="url(#a)"
           d="m 382.848,187.646 c -3.758,0.8 -8.995,-1.599 -11.993,-1.599 -5.277,1.6 -8.275,6.396 -12.752,9.594 -0.76,-1.599 -2.998,-2.398 -2.998,-5.596 -5.997,4.797 -17.23,6.396 -18.749,-6.396 -4.477,2.398 -8.235,6.396 -12.752,1.599 -1.48,1.599 -4.477,2.398 -5.996,3.997 v -5.596 c -2.999,0.8 -6.716,3.198 -9.715,4.797 0.72,-3.198 2.239,-7.196 2.239,-11.193 -5.996,-1.6 -8.995,1.599 -13.512,5.596 0,-2.398 -1.479,-1.599 0,-8.794 -4.477,2.398 -5.237,2.398 -8.235,5.596 2.239,-2.398 0,-5.596 0,-9.594 -2.238,0 -5.237,0.8 -6.756,0.8 0.76,-0.8 0.76,-1.6 1.52,-2.4 -0.76,-0.799 -2.28,-2.398 -2.999,-3.197 l -0.76,-10.394 c 0,0 -4.517,3.998 7.516,-49.61 11.233,-53.647 66.68,-93.623 116.17,-100.02 8.994,-0.799 17.23,-1.598 24.745,-0.799 2.998,0 5.237,-0.8 5.237,-3.238 2.238,2.439 5.236,3.238 8.235,3.238 V 2 c 1.519,3.238 5.996,4.037 8.994,2.438 2.279,2.399 6.756,3.998 9.754,1.6 2.279,3.997 9.754,6.395 11.993,2.398 1.519,3.198 3.758,3.997 6.756,4.797 4.517,1.599 3.758,1.599 7.515,4.797 2.239,3.198 5.237,5.597 8.235,7.995 0.76,-0.8 1.48,-2.398 1.48,-3.198 0.759,3.198 2.278,4.797 5.276,6.396 1.48,0.8 5.237,3.198 7.476,3.198 -0.76,3.198 6.756,7.196 8.994,8.795 a 878.692,878.692 0 0 1 5.997,6.396 c 1.519,1.6 4.517,5.637 6.755,5.637 0,-0.84 1.48,-0.84 1.48,-1.64 1.519,3.239 2.998,6.437 5.996,8.835 0.76,0 2.279,0 2.998,0.8 0.76,0.8 0.76,1.599 1.52,2.398 1.478,1.6 2.997,3.998 5.996,1.6 0.76,3.198 4.517,6.396 7.515,7.195 0,0 3.718,3.998 5.237,2.399 0,-3.198 2.238,-6.396 2.998,-9.595 0.76,-4.797 0,-9.594 2.239,-13.631 1.519,-3.998 4.517,-1.6 7.515,1.639 3.718,4.797 5.237,11.992 5.996,18.389 0.72,4.797 4.478,17.589 0.72,21.587 4.517,6.396 8.995,13.631 10.514,19.228 1.479,3.198 5.996,11.193 7.475,13.592 4.517,6.396 8.275,14.39 9.754,15.99 1.52,1.599 2.239,3.998 3.758,7.196 2.998,5.636 5.996,12.832 8.235,18.428 1.519,4.797 5.237,9.595 5.237,14.392 -0.72,7.195 -2.998,7.995 -8.235,11.992 -4.478,3.198 -6.756,6.397 -12.752,6.397 -6.716,0 -14.232,-2.399 -20.228,-4.798 -10.474,-5.596 -26.224,-11.992 -38.977,-13.591 -5.996,-0.8 -8.235,-0.8 -12.752,2.398 -1.479,2.399 -4.477,7.196 -1.479,7.995 -2.279,0 -5.277,0 -6.756,-2.398 -1.519,0 -0.76,2.398 -2.239,3.198 -0.76,0 -2.278,-0.8 -2.998,-0.8 h -4.517 c -2.998,-0.8 -6.756,3.998 -5.996,-2.398 -2.999,1.599 -6.756,3.198 -8.995,5.596 0.76,-0.8 1.52,-2.398 2.239,-3.997 -2.998,-3.198 -15.71,-0.8 -19.468,2.398 0.76,-0.8 0.76,-2.398 1.479,-3.997 -1.48,1.599 -3.718,2.398 -5.997,3.198 -1.479,-3.998 -19.468,-4.797 -22.466,-3.198 v -5.597 c -2.279,0.8 -3.758,2.399 -5.996,3.198 0,-0.8 0,-3.198 0.72,-4.797 -2.24,0 -5.238,0.8 -7.476,0.8 2.238,-0.8 3.757,-3.198 3.757,-5.597 0,0 -5.996,-2.398 -4.517,2.399 -1.479,-0.8 -1.479,-0.8 -2.998,-2.399 -2.239,-1.599 -3.758,-3.997 -4.477,-5.597 2.998,4.798 0,7.196 -4.518,10.394 -5.236,3.198 -5.996,3.198 -11.233,3.198 -2.998,0 -2.998,0.8 -5.237,2.399 -0.76,0.8 -0.76,2.398 -2.278,2.398 -2.239,0 -2.998,-3.198 -5.237,-2.398 -2.239,0 -4.477,2.398 -5.996,3.997 -0.76,-4.797 -5.237,-7.195 -7.476,-1.599 1.48,-6.396 -5.996,-2.398 -7.515,0.8 0,-1.6 -0.76,-2.399 -2.239,-3.198"
           fill="none"
           stroke="#1a171b"
           stroke-width="1.19927px"
           stroke-linecap="round"
           stroke-linejoin="round"
           stroke-miterlimit="4"
           stroke-dasharray="none"
           stroke-opacity="1"
           id="path63" />
        <path
           clip-path="url(#a)"
           d="m 280.15,165.18 -0.72,-10.394 c 0,0 -0.759,0.8 -0.759,-4.797 -29.982,-4.797 -47.251,4.797 -63.721,15.19 -15.75,9.595 -30.782,20.788 -63.002,19.989 -33.02,-0.8 -54.007,-8.795 -72.756,-15.99 -20.228,-7.996 -36.738,-13.592 -61.483,-6.397 -5.996,0.8 -9.754,3.198 -12.752,4.797 -3.758,1.6 -2.998,2.399 0.76,2.399 1.519,-0.8 3.757,-0.8 5.996,-1.6 0,0 0,0 0,0 2.998,-0.799 17.989,-3.997 29.262,-3.197 11.993,1.599 23.226,5.596 35.219,10.394 17.989,7.195 40.495,19.987 75.754,20.787 34.499,0.8 53.248,-11.193 68.998,-21.587 16.47,-9.594 31.461,-15.19 59.204,-9.594 0,0 0,0 0,0"
           fill="none"
           stroke="#1a171b"
           stroke-width="1.19927px"
           stroke-linecap="round"
           stroke-linejoin="round"
           stroke-miterlimit="4"
           stroke-dasharray="none"
           stroke-opacity="1"
           id="path65" />
        <path
           d="m 574.132,53.328 c 3.718,4.797 5.237,11.992 5.996,18.389 0.72,3.997 2.959,12.792 2.239,18.388 0.72,-2.398 2.239,-5.596 2.239,-7.995 0.72,-4.797 0,-7.995 -1.52,-11.992 -0.719,-3.199 -5.236,-14.392 -10.473,-18.39 l 1.519,1.6 M 414.389,187.646 c 0,0 -0.76,0 -0.76,0.8 -0.76,0.8 -0.76,2.398 -2.238,2.398 -2.239,0 -2.999,-3.198 -5.237,-2.398 -2.239,0 -4.517,2.398 -5.997,3.957 -0.76,-4.757 -5.236,-7.155 -7.475,-1.559 1.48,-6.396 -5.996,-2.398 -7.515,0.8 0,-1.6 -0.76,-2.399 -2.24,-3.198 v -0.8 c -3.757,0.8 -8.994,-1.599 -11.992,-1.599 -3.718,0.8 -5.996,3.198 -8.994,5.597 1.519,4.757 0,6.356 5.996,7.156 5.237,0.76 9.754,-0.8 14.99,-1.6 6.757,-0.799 17.99,0 25.465,0 3.758,0 12.713,-0.799 15.711,2.36 -0.72,-3.959 -3.718,-4.758 -6.716,-6.357 2.998,0 8.235,-2.359 10.474,0.8 1.479,-8.755 -7.476,-5.557 -13.472,-6.357 m 157.344,-101.698 -0.24,0.16 M 478.15,193.163 c 2.279,-0.8 4.517,-1.6 5.997,-3.198 -0.72,1.599 -0.72,3.198 -1.48,3.997 3.758,-3.198 16.51,-5.596 19.509,-2.398 -0.76,1.599 -1.52,3.198 -2.239,3.997 2.239,-2.398 5.996,-3.997 8.995,-5.596 -0.76,6.396 2.998,2.398 5.236,2.398 2.999,1.6 5.277,3.998 5.997,7.196 -5.237,-5.597 -17.23,0 -24.745,-0.8 -2.239,0 -4.518,-1.598 -7.516,-1.598 -2.998,0 -7.475,1.599 -9.754,-1.6 -0.76,-0.799 -0.76,-2.398 -0.76,-3.997 0,0.8 0.76,0.8 0.76,1.599"
           fill="none"
           stroke="#1a171b"
           stroke-width="1.19927px"
           stroke-linecap="round"
           stroke-linejoin="round"
           stroke-miterlimit="4"
           stroke-dasharray="none"
           stroke-opacity="1"
           id="path67" />
        <path
           d="m 374.613,70.757 c -0.76,-1.599 -0.76,-4.797 0,-7.196 2.199,1.6 2.918,5.597 2.199,7.196 m 133.518,64.121 c 0,0.76 0.76,1.52 1.52,1.52 m -4.398,1.518 c 0.72,0.84 1.44,1.64 2.16,3.278 m 9.034,-15.99 c -0.72,1.52 -2.159,2.279 -2.159,3.038 m -82.51,30.542 c -6.156,-0.76 -3.838,-7.915 0,-5.517"
           fill="none"
           stroke="#f5f5f6"
           stroke-width="1.19927px"
           stroke-linecap="butt"
           stroke-linejoin="miter"
           stroke-miterlimit="8"
           stroke-dasharray="none"
           stroke-opacity="1"
           id="path69" />
        <path
           d="m 518.646,85.948 c 0.64,0 0.64,-0.8 0.64,-1.6 m 10.553,40.856 c -0.76,0 -2.279,1.52 -3.038,0.76 m -4.398,-37.618 c 0,-0.76 0.64,-0.76 0.64,-1.519"
           fill="none"
           stroke="#ececed"
           stroke-width="1.19927px"
           stroke-linecap="round"
           stroke-linejoin="round"
           stroke-miterlimit="10"
           stroke-dasharray="none"
           stroke-opacity="1"
           id="path71" />
        <path
           d="m 596.479,189.845 c -12.753,8.795 -18.75,27.183 -23.266,42.374 m 26.384,-40.775 c -8.235,8.835 -17.95,39.256 -20.228,55.246 m 22.386,-49.57 c -5.956,10.434 -14.231,29.663 -14.231,45.653 m 29.182,-82.51 c 3.798,-11.993 26.424,-33.58 34.7,-35.978 m -33.181,37.737 c 6.037,-8.795 30.782,-32.02 46.532,-36.858 m -45.013,40.776 c 7.516,-7.996 32.26,-19.189 39.736,-22.387 m -37.497,27.263 c 6.036,-4.797 24.065,-10.393 27.823,-11.193"
           fill="none"
           stroke="#1a171b"
           stroke-width="0.479709px"
           stroke-linecap="round"
           stroke-linejoin="round"
           stroke-miterlimit="10"
           stroke-dasharray="none"
           stroke-opacity="1"
           id="path73" />
        <path
           d="m 601.795,190.764 c 0,0 0,0 0,0 v -0.88 0.88 m 2.239,-3.917 c -0.72,-0.88 0,-0.88 -0.72,-0.88 l 0.72,0.88 m -2.239,8.794 c 0,0 0,0 0,0 v -0.879 m 5.917,1.519 c 0,-0.64 0,-0.64 -0.64,-0.64 m 0,-8.794 v 0.64 l 0.64,-0.64 c -0.64,0 0,0.64 -0.64,0.64"
           fill="none"
           stroke="#1a171b"
           stroke-width="1.19927px"
           stroke-linecap="round"
           stroke-linejoin="round"
           stroke-miterlimit="10"
           stroke-dasharray="none"
           stroke-opacity="1"
           id="path75" />
      </g>
    </g>
  </g>
</svg>
